342159786	M58406.1	M58407.1	Jul 29, 2011 04:04 PM
87294804	AY835335.1	AY834954.1	Mar 2, 2006 01:04 PM
59476	S51931.1	Nov 19, 2003 10:09 AM
1561533	D17471	D21316	Sep 25, 1996 02:25 AM
1765890	D17509	Jan 7, 1997 01:14 AM
1765888	D17508	Jan 7, 1997 01:14 AM
1765886	D17507	Jan 7, 1997 01:14 AM
1765884	D17506	Jan 7, 1997 01:14 AM
1765882	D17505	Jan 7, 1997 01:14 AM
1765880	D17504	Jan 7, 1997 01:14 AM
1765878	D17503	Jan 7, 1997 01:14 AM
1765876	D17502	Jan 7, 1997 01:14 AM
1765874	D17501	Jan 7, 1997 01:14 AM
1765872	D17500	Jan 7, 1997 01:14 AM
1765871	D17499	Jan 7, 1997 01:14 AM
1765869	D17498	Jan 7, 1997 01:14 AM
1765867	D17497	Jan 7, 1997 01:14 AM
1765865	D17496	Jan 7, 1997 01:14 AM
1526480	D17489	D21328	Sep 7, 1996 01:32 AM
1526478	D17486	D21327	Sep 7, 1996 01:31 AM
1526476	D17477	D21326	Sep 7, 1996 01:31 AM
1526474	D17476	D21325	Sep 7, 1996 01:31 AM
1526472	D14209	D21324	Sep 7, 1996 01:31 AM
1526470	D14211	D21323	Sep 7, 1996 01:31 AM
1526468	D14208	D21322	Sep 7, 1996 01:31 AM
1526466	D14207	D21321	Sep 7, 1996 01:31 AM
1526464	D14205	D21320	Sep 7, 1996 01:31 AM
1526462	D17473	D21319	Sep 7, 1996 01:31 AM
1526460	D17472	D21318	Sep 7, 1996 01:31 AM
1526458	D14204	D21317	Sep 7, 1996 01:31 AM
1526456	D17470	D21315	Sep 7, 1996 01:31 AM
804841	D14212	Aug 14, 1996 01:08 AM
