F8VA44:JN048892 JN048891 JN048896 
Q548R2:AF289999 AF286371 
I2FK90:AB691540 AB678699 
T2F857:KF154747 KF154744 
T2F9V1:KF154759 KF154748 
T2F851:KF154740 KF154742 
T2F981:KF154758 KF154749 
E2I9M6:HM448047 HM448048 HM448046 
E2I9M4:HM448044 HM448045 
