148229239	NM_001087864.1	Jul 25, 2007 02:37 AM
148233441	NM_001089967.1	Jul 25, 2007 02:42 AM
148232093	NM_001088382.1	Jul 25, 2007 02:43 AM
147905235	NM_001088834.1	Jul 25, 2007 02:41 AM
147903945	NM_001087574.1	Jul 25, 2007 02:47 AM
147903271	NM_001089602.1	Jul 25, 2007 02:47 AM
147902819	NM_001090579.1	Jul 25, 2007 02:46 AM
147899554	NM_001090500.1	Jul 25, 2007 02:41 AM
148232785	NM_001087510.1	NM_001087511.1	Jul 25, 2007 02:36 AM
148232045	NM_001090818.1	Jul 25, 2007 02:46 AM
148223348	NM_001088858.1	Jul 25, 2007 02:35 AM
148223785	NM_001090905.1	Jul 25, 2007 02:39 AM
148231166	NM_001088021.1	Jul 25, 2007 02:44 AM
148228463	NM_001090800.1	Jul 25, 2007 02:51 AM
147905279	NM_001088101.1	Jul 25, 2007 02:46 AM
148231102	NM_001089165.1	Jul 25, 2007 02:32 AM
148238216	NM_001088151.1	Jul 25, 2007 02:30 AM
147906728	NM_001088149.1	Jul 25, 2007 02:47 AM
147906333	NM_001090353.1	Jul 25, 2007 02:43 AM
147902446	NM_001088762.1	Jul 25, 2007 02:51 AM
468457437	NR_034177.1	Mar 19, 2013 09:02 AM
147902309	NM_001088506.1	Jul 25, 2007 02:43 AM
148232330	NM_001090386.1	Jul 25, 2007 02:47 AM
147904709	NM_001089616.1	Jul 25, 2007 02:43 AM
148225225	NM_001088083.1	Jul 25, 2007 02:36 AM
148232847	NM_001090282.1	Jul 25, 2007 02:46 AM
148230922	NM_001089006.1	Jul 25, 2007 02:50 AM
156119536	NM_001101796.1	Aug 21, 2007 02:34 AM
156119532	NM_001101794.1	Aug 21, 2007 02:34 AM
156119528	NM_001101792.1	Aug 21, 2007 02:34 AM
156119524	NM_001101790.1	Aug 21, 2007 02:34 AM
156119520	NM_001101788.1	Aug 21, 2007 02:34 AM
156119516	NM_001101786.1	Aug 21, 2007 02:34 AM
156119508	NM_001101782.1	Aug 21, 2007 02:34 AM
156119504	NM_001101780.1	Aug 21, 2007 02:34 AM
156119500	NM_001101778.1	Aug 21, 2007 02:34 AM
156119492	NM_001101774.1	Aug 21, 2007 02:34 AM
156119488	NM_001101772.1	Aug 21, 2007 02:34 AM
156119484	NM_001101770.1	Aug 21, 2007 02:34 AM
156119480	NM_001101768.1	Aug 21, 2007 02:34 AM
156119476	NM_001101764.1	Aug 21, 2007 02:34 AM
156119472	NM_001101762.1	Aug 21, 2007 02:34 AM
156119468	NM_001101760.1	Aug 21, 2007 02:34 AM
156119464	NM_001101758.1	Aug 21, 2007 02:34 AM
156119460	NM_001101756.1	Aug 21, 2007 02:34 AM
156119452	NM_001101752.1	Aug 21, 2007 02:34 AM
156119448	NM_001101750.1	Aug 21, 2007 02:34 AM
155369242	NM_001100936.1	Aug 14, 2007 02:31 AM
155369238	NM_001100934.1	Aug 14, 2007 02:31 AM
155369234	NM_001100932.1	Aug 14, 2007 02:31 AM
155369230	NM_001100930.1	Aug 14, 2007 02:31 AM
155369226	NM_001100926.1	Aug 14, 2007 02:31 AM
155369222	NM_001100924.1	Aug 14, 2007 02:31 AM
148539635	NM_001098429.1	Jul 25, 2007 02:31 AM
148539621	NM_001091792.1	Mar 9, 2012 12:32 AM
148539597	NM_001098433.1	Jul 25, 2007 02:45 AM
148539549	NM_001098431.1	Jul 25, 2007 02:45 AM
148368994	NM_001088480.1	Jul 28, 2007 02:43 AM
148238316	NM_001087576.1	Jul 25, 2007 02:50 AM
148238292	NM_001087964.1	Jul 25, 2007 02:51 AM
148238288	NM_001089291.1	Jul 25, 2007 02:46 AM
148238282	NM_001090941.1	Jul 25, 2007 02:46 AM
148238270	NM_001088326.1	Jul 25, 2007 02:46 AM
148238228	NM_001089108.1	Jul 25, 2007 02:32 AM
148238224	NM_001090758.1	Jul 25, 2007 02:31 AM
148238214	NM_001089796.1	Jul 25, 2007 02:36 AM
148238190	NM_001087602.1	Jul 25, 2007 02:38 AM
148238178	NM_001090587.1	Jul 25, 2007 02:38 AM
148238165	NM_001087990.1	Jul 25, 2007 02:40 AM
148238163	NM_001089610.1	Jul 25, 2007 02:41 AM
148238147	NM_001088348.1	Jul 25, 2007 02:43 AM
148238121	NM_001090404.1	Jul 25, 2007 02:38 AM
148238103	NM_001089134.1	Jul 25, 2007 02:39 AM
148238081	NM_001088167.1	Jul 25, 2007 02:41 AM
148238059	NM_001088555.1	Jul 25, 2007 02:36 AM
148238045	NM_001087626.1	Jul 25, 2007 02:50 AM
148238017	NM_001089636.1	Jul 25, 2007 02:46 AM
148238003	NM_001088374.1	Jul 25, 2007 02:48 AM
148237985	NM_001088764.1	Jul 25, 2007 02:46 AM
148237977	NM_001090430.1	Jul 25, 2007 02:35 AM
148237959	NM_001090810.1	Jul 25, 2007 02:49 AM
148237949	NM_001088193.1	Jul 25, 2007 02:47 AM
148237929	NM_001088581.1	Jul 25, 2007 02:35 AM
148237925	NM_001090245.1	Jul 25, 2007 02:49 AM
148237889	NM_001089662.1	Jul 25, 2007 02:46 AM
148237873	NM_001088400.1	Jul 25, 2007 02:45 AM
148237855	NM_001088790.1	Jul 25, 2007 02:33 AM
148237851	NM_001090456.1	Jul 25, 2007 02:44 AM
148237833	NM_001090834.1	Jul 25, 2007 02:36 AM
148237827	NM_001088219.1	Jul 25, 2007 02:36 AM
148237746	NM_001088426.1	Jul 25, 2007 02:42 AM
148237726	NM_001088816.1	Jul 25, 2007 02:45 AM
148237722	NM_001090482.1	Jul 25, 2007 02:42 AM
148237613	NM_001090113.1	Jul 25, 2007 02:49 AM
148237597	NM_001088842.1	Jul 25, 2007 02:51 AM
148237593	NM_001090508.1	Jul 25, 2007 02:52 AM
148237531	NM_001090323.1	Jul 25, 2007 02:40 AM
148237481	NM_001090138.1	Jul 25, 2007 02:48 AM
148237479	NM_001088476.1	Jul 25, 2007 02:50 AM
148237477	NM_001087549.1	Jul 25, 2007 02:49 AM
148237465	NM_001088868.1	Jul 25, 2007 02:33 AM
148237421	NM_001089953.1	Jul 25, 2007 02:31 AM
148237405	NM_001088685.1	Jul 25, 2007 02:52 AM
148237401	NM_001090349.1	Jul 25, 2007 02:46 AM
148237367	NM_001089767.1	Jul 25, 2007 02:45 AM
148237353	NM_001088502.1	Jul 25, 2007 02:44 AM
148237351	NM_001090164.1	Jul 25, 2007 02:41 AM
148237323	NM_001087961.1	Jul 25, 2007 02:51 AM
148237295	NM_001089979.1	Jul 25, 2007 02:42 AM
148237273	NM_001090375.1	Jul 25, 2007 02:39 AM
148237262	NM_001087776.1	Jul 25, 2007 02:38 AM
148237224	NM_001088526.1	Jul 25, 2007 02:45 AM
148237220	NM_001090190.1	Jul 25, 2007 02:46 AM
148237182	NM_001090964.1	Jul 25, 2007 02:50 AM
148237168	NM_001090005.1	Jul 25, 2007 02:46 AM
148237154	NM_001088736.1	Jul 25, 2007 02:43 AM
148237138	NM_001087802.1	Jul 25, 2007 02:40 AM
148237110	NM_001089819.1	Jul 25, 2007 02:47 AM
148237090	NM_001090216.1	Jul 25, 2007 02:43 AM
148237074	NM_001088946.1	Jul 25, 2007 02:48 AM
148237068	NM_001090610.1	Jul 25, 2007 02:42 AM
148237058	NM_001088013.1	Jul 25, 2007 02:43 AM
148237047	NM_001090990.1	Jul 25, 2007 02:42 AM
148237035	NM_001090032.1	Jul 25, 2007 02:39 AM
148237003	NM_001087828.1	Jul 25, 2007 02:46 AM
148236997	NM_001089157.1	Jul 25, 2007 02:46 AM
148236979	NM_001089845.1	Jul 25, 2007 02:47 AM
148236943	NM_001087649.1	Jul 25, 2007 02:49 AM
148236935	NM_001088972.1	Jul 25, 2007 02:49 AM
148236930	NM_001090636.1	Jul 25, 2007 02:48 AM
148236922	NM_001088037.1	Jul 25, 2007 02:36 AM
148236904	NM_001090058.1	Jul 25, 2007 02:36 AM
148236876	NM_001087854.1	Jul 25, 2007 02:31 AM
148236868	NM_001089183.1	Jul 25, 2007 02:49 AM
148236852	NM_001089871.1	Jul 25, 2007 02:39 AM
148236830	NM_001090268.1	Jul 25, 2007 02:47 AM
148236824	NM_001087675.1	Jul 25, 2007 02:47 AM
148236810	NM_001088998.1	Jul 25, 2007 02:39 AM
148236802	NM_001088057.1	Jul 25, 2007 02:46 AM
148236778	NM_001090084.1	Jul 25, 2007 02:43 AM
148236744	NM_001087880.1	Jul 25, 2007 02:38 AM
148236740	NM_001089209.1	Jul 25, 2007 02:36 AM
148236734	NM_001090857.1	Jul 25, 2007 02:48 AM
148236724	NM_001088242.1	Jul 25, 2007 02:48 AM
148236720	NM_001089898.1	Jul 25, 2007 02:33 AM
148236702	NM_001088630.1	Jul 25, 2007 02:41 AM
148236696	NM_001090294.1	Jul 25, 2007 02:44 AM
148236686	NM_001087695.1	Jul 25, 2007 02:42 AM
148236678	NM_001089024.1	Jul 25, 2007 02:40 AM
148236676	NM_001090676.1	Jul 25, 2007 02:42 AM
148236666	NM_001088077.1	Jul 25, 2007 02:42 AM
148236662	NM_001089712.1	Jul 25, 2007 02:40 AM
148236636	NM_001087523.1	NM_001087522.1	Jul 25, 2007 02:32 AM
148236618	NM_001087906.1	Jul 25, 2007 02:46 AM
148236614	NM_001089235.1	Jul 25, 2007 02:46 AM
148236606	NM_001090883.1	Jul 25, 2007 02:51 AM
148236596	NM_001088268.1	Jul 25, 2007 02:45 AM
148236594	NM_001089924.1	Jul 25, 2007 02:50 AM
148236574	NM_001088656.1	Jul 25, 2007 02:31 AM
148236558	NM_001087721.1	Jul 25, 2007 02:44 AM
148236554	NM_001089050.1	Jul 25, 2007 02:33 AM
148236550	NM_001090700.1	Jul 25, 2007 02:38 AM
148236542	NM_001088097.1	Jul 25, 2007 02:50 AM
148236536	NM_001089738.1	Jul 25, 2007 02:39 AM
148236520	NM_001088473.1	Jul 25, 2007 02:40 AM
148236499	NM_001090531.1	Jul 25, 2007 02:43 AM
148236481	NM_001090909.1	Jul 25, 2007 02:42 AM
148236469	NM_001088294.1	Jul 25, 2007 02:42 AM
148236465	NM_001089950.1	Jul 25, 2007 02:42 AM
148236441	NM_001087747.1	Jul 25, 2007 02:41 AM
148236427	NM_001089076.1	Jul 25, 2007 02:41 AM
148236423	NM_001090726.1	Jul 25, 2007 02:41 AM
148236413	NM_001088119.1	Jul 25, 2007 02:40 AM
148236407	NM_001087932.1	Jul 25, 2007 02:43 AM
148236383	NM_001087570.1	Jul 25, 2007 02:39 AM
148236372	NM_001090557.1	Jul 25, 2007 02:39 AM
148236360	NM_001089285.1	Jul 25, 2007 02:38 AM
148236354	NM_001090935.1	Jul 25, 2007 02:38 AM
148236344	NM_001088320.1	Jul 25, 2007 02:38 AM
148236306	NM_001089102.1	Jul 25, 2007 02:37 AM
148236302	NM_001090752.1	Jul 25, 2007 02:37 AM
148236290	NM_001088145.1	Jul 25, 2007 02:36 AM
148236285	NM_001089790.1	Jul 25, 2007 02:36 AM
148236260	NM_001087596.1	Jul 25, 2007 02:36 AM
148236246	NM_001090581.1	Jul 25, 2007 02:35 AM
148236236	NM_001087984.1	Jul 25, 2007 02:35 AM
148236234	NM_001089604.1	Jul 25, 2007 02:30 AM
148236220	NM_001088342.1	Jul 25, 2007 02:32 AM
148236190	NM_001090398.1	Jul 25, 2007 02:33 AM
148236178	NM_001089128.1	Jul 25, 2007 02:34 AM
148236172	NM_001090778.1	Jul 25, 2007 02:43 AM
148236142	NM_001088549.1	Jul 25, 2007 02:44 AM
148236128	NM_001087620.1	Jul 25, 2007 02:44 AM
148236100	NM_001089630.1	Jul 25, 2007 02:46 AM
148236086	NM_001088368.1	Jul 25, 2007 02:47 AM
148236066	NM_001088758.1	Jul 25, 2007 02:47 AM
148236056	NM_001090424.1	Jul 25, 2007 02:51 AM
148236038	NM_001090804.1	Jul 25, 2007 02:52 AM
148236028	NM_001088187.1	Jul 25, 2007 02:49 AM
148236024	NM_001089842.1	Jul 25, 2007 02:49 AM
148236010	NM_001088575.1	Jul 25, 2007 02:49 AM
148236004	NM_001090239.1	Jul 25, 2007 02:49 AM
148235968	NM_001089656.1	Jul 25, 2007 02:49 AM
148235952	NM_001088394.1	Jul 25, 2007 02:48 AM
148235928	NM_001088784.1	Jul 25, 2007 02:48 AM
148235924	NM_001090450.1	Jul 25, 2007 02:48 AM
148235904	NM_001090828.1	Jul 25, 2007 02:30 AM
148235898	NM_001088213.1	Jul 25, 2007 02:32 AM
148235870	NM_001088601.1	Jul 25, 2007 02:44 AM
148235828	NM_001089682.1	Jul 25, 2007 02:50 AM
148235812	NM_001088420.1	Jul 25, 2007 02:51 AM
148235792	NM_001088810.1	Jul 25, 2007 02:39 AM
148235786	NM_001090476.1	Jul 25, 2007 02:39 AM
148235684	NM_001088446.1	Jul 25, 2007 02:34 AM
148235680	NM_001090107.1	Jul 25, 2007 02:43 AM
148235668	NM_001087520.1	NM_001087519.1	Jul 25, 2007 02:44 AM
148235662	NM_001088836.1	Jul 25, 2007 02:45 AM
148235658	NM_001090502.1	Jul 25, 2007 02:45 AM
148235601	NM_001090317.1	Jul 25, 2007 02:47 AM
148235546	NM_001090132.1	Jul 25, 2007 02:51 AM
148235534	NM_001087543.1	Jul 25, 2007 02:42 AM
148235530	NM_001088862.1	Jul 25, 2007 02:39 AM
148235480	NM_001088679.1	Jul 25, 2007 02:51 AM
148235470	NM_001090343.1	Jul 25, 2007 02:45 AM
148235434	NM_001089761.1	Jul 25, 2007 02:33 AM
148235422	NM_001087567.1	Jul 25, 2007 02:48 AM
148235418	NM_001088496.1	Jul 25, 2007 02:37 AM
148235416	NM_001090158.1	Jul 25, 2007 02:50 AM
148235404	NM_001088888.1	Jul 25, 2007 02:46 AM
148235394	NM_001087955.1	Jul 25, 2007 02:46 AM
148235364	NM_001089973.1	Jul 25, 2007 02:34 AM
148235346	NM_001088705.1	Jul 25, 2007 02:32 AM
148235340	NM_001090369.1	Jul 25, 2007 02:35 AM
148235330	NM_001087770.1	Jul 25, 2007 02:41 AM
148235292	NM_001090184.1	Jul 25, 2007 02:35 AM
148235260	NM_001090958.1	Jul 25, 2007 02:39 AM
148235242	NM_001089999.1	Jul 25, 2007 02:37 AM
148235226	NM_001088730.1	Jul 25, 2007 02:48 AM
148235216	NM_001087796.1	Jul 25, 2007 02:47 AM
148235169	NM_001088546.1	Jul 25, 2007 02:30 AM
148235165	NM_001090210.1	Jul 25, 2007 02:40 AM
148235151	NM_001090604.1	Jul 25, 2007 02:40 AM
148235149	NM_001088940.1	Jul 25, 2007 02:43 AM
148235141	NM_001088007.1	Jul 25, 2007 02:40 AM
148235123	NM_001090984.1	Jul 25, 2007 02:50 AM
148235113	NM_001090025.1	Jul 25, 2007 02:47 AM
148235079	NM_001087822.1	Jul 25, 2007 02:46 AM
148235075	NM_001089151.1	Jul 25, 2007 02:44 AM
148235017	NM_001088966.1	Jul 25, 2007 02:41 AM
148235015	NM_001090630.1	Jul 25, 2007 02:40 AM
148234993	NM_001091010.1	Jul 25, 2007 02:39 AM
148234978	NM_001090052.1	Jul 25, 2007 02:31 AM
148234948	NM_001087848.1	Jul 25, 2007 02:44 AM
148234942	NM_001089177.1	Jul 25, 2007 02:33 AM
148234926	NM_001089865.1	Jul 25, 2007 02:47 AM
148234908	NM_001090262.1	Jul 25, 2007 02:51 AM
148234892	NM_001087669.1	Jul 25, 2007 02:50 AM
148234886	NM_001090654.1	Jul 25, 2007 02:48 AM
148234884	NM_001088992.1	Jul 25, 2007 02:50 AM
148234850	NM_001090078.1	Jul 25, 2007 02:50 AM
148234822	NM_001087874.1	Jul 25, 2007 02:52 AM
148234804	NM_001088236.1	Jul 25, 2007 02:40 AM
148234800	NM_001089892.1	Jul 25, 2007 02:47 AM
148234776	NM_001090288.1	Jul 25, 2007 02:40 AM
148234766	NM_001087691.1	Jul 25, 2007 02:43 AM
148234760	NM_001089018.1	Jul 25, 2007 02:41 AM
148234756	NM_001090670.1	Jul 25, 2007 02:42 AM
148234746	NM_001089706.1	Jul 25, 2007 02:42 AM
148234715	NM_001087517.1	NM_001087516.1	Jul 25, 2007 02:43 AM
148234691	NM_001089229.1	Jul 25, 2007 02:43 AM
148234683	NM_001090877.1	Jul 25, 2007 02:42 AM
148234673	NM_001089918.1	Jul 25, 2007 02:42 AM
148234669	NM_001088262.1	Jul 25, 2007 02:42 AM
148234648	NM_001088650.1	Jul 25, 2007 02:41 AM
148234630	NM_001087715.1	Jul 25, 2007 02:41 AM
148234624	NM_001089044.1	Jul 25, 2007 02:41 AM
148234622	NM_001090694.1	Jul 25, 2007 02:41 AM
148234606	NM_001089732.1	Jul 25, 2007 02:41 AM
148234592	NM_001088467.1	Jul 25, 2007 02:40 AM
148234562	NM_001087926.1	Jul 25, 2007 02:39 AM
148234560	NM_001089255.1	Jul 25, 2007 02:39 AM
148234554	NM_001090903.1	Jul 25, 2007 02:38 AM
148234541	NM_001088288.1	Jul 25, 2007 02:38 AM
148234537	NM_001089944.1	Jul 25, 2007 02:38 AM
148234499	NM_001087741.1	Jul 25, 2007 02:37 AM
148234491	NM_001089070.1	Jul 25, 2007 02:37 AM
148234489	NM_001090720.1	Jul 25, 2007 02:36 AM
148234450	NM_001090551.1	Jul 25, 2007 02:36 AM
148234430	NM_001090929.1	Jul 25, 2007 02:35 AM
148234379	NM_001089096.1	Jul 25, 2007 02:30 AM
148234375	NM_001090746.1	Jul 25, 2007 02:32 AM
148234365	NM_001088139.1	Jul 25, 2007 02:32 AM
148234361	NM_001089784.1	Jul 25, 2007 02:43 AM
148234329	NM_001087590.1	Jul 25, 2007 02:44 AM
148234321	NM_001090575.1	Jul 25, 2007 02:44 AM
148234313	NM_001087978.1	Jul 25, 2007 02:44 AM
148234306	NM_001089598.1	Jul 25, 2007 02:45 AM
148234290	NM_001088336.1	Jul 25, 2007 02:45 AM
148234260	NM_001090392.1	Jul 25, 2007 02:46 AM
148234244	NM_001089122.1	Jul 25, 2007 02:46 AM
148234242	NM_001090772.1	Jul 25, 2007 02:46 AM
148234234	NM_001088159.1	Jul 25, 2007 02:46 AM
148234226	NM_001089810.1	Jul 25, 2007 02:46 AM
148234201	NM_001087616.1	Jul 25, 2007 02:47 AM
148234175	NM_001089624.1	Jul 25, 2007 02:51 AM
148234155	NM_001088362.1	Jul 25, 2007 02:51 AM
148234129	NM_001090418.1	Jul 25, 2007 02:50 AM
148234111	NM_001090798.1	Jul 25, 2007 02:50 AM
148234101	NM_001088181.1	Jul 25, 2007 02:48 AM
148234095	NM_001089836.1	Jul 25, 2007 02:49 AM
148234079	NM_001088569.1	Jul 25, 2007 02:48 AM
148234063	NM_001087640.1	Jul 25, 2007 02:36 AM
148234041	NM_001089650.1	Jul 25, 2007 02:43 AM
148234025	NM_001088388.1	Jul 25, 2007 02:45 AM
148234001	NM_001088778.1	Jul 25, 2007 02:49 AM
148233995	NM_001090444.1	Jul 25, 2007 02:50 AM
148233971	NM_001088207.1	Jul 25, 2007 02:40 AM
148233951	NM_001088595.1	Jul 25, 2007 02:32 AM
148233909	NM_001089676.1	Jul 25, 2007 02:32 AM
148233895	NM_001088414.1	Jul 25, 2007 02:47 AM
148233877	NM_001088804.1	Jul 25, 2007 02:48 AM
148233875	NM_001090470.1	Jul 25, 2007 02:50 AM
148233853	NM_001090848.1	Jul 25, 2007 02:34 AM
148233763	NM_001088440.1	Jul 25, 2007 02:40 AM
148233761	NM_001090101.1	Jul 25, 2007 02:47 AM
148233751	NM_001087514.1	NM_001087513.1	Jul 25, 2007 02:43 AM
148233743	NM_001088830.1	Jul 25, 2007 02:42 AM
148233741	NM_001090496.1	Jul 25, 2007 02:51 AM
148233729	NM_001087897.1	Jul 25, 2007 02:49 AM
148233663	NM_001089041.1	Jul 25, 2007 02:44 AM
148233625	NM_001090126.1	Jul 25, 2007 02:36 AM
148233617	NM_001087537.1	Jul 25, 2007 02:32 AM
148233613	NM_001088856.1	Jul 25, 2007 02:37 AM
148233553	NM_001088673.1	Jul 25, 2007 02:44 AM
148233546	NM_001090337.1	Jul 25, 2007 02:36 AM
148233496	NM_001088490.1	Jul 25, 2007 02:48 AM
148233492	NM_001090152.1	Jul 25, 2007 02:30 AM
148233481	NM_001088882.1	Jul 25, 2007 02:39 AM
148233463	NM_001089276.1	Jul 25, 2007 02:46 AM
148233420	NM_001088699.1	Jul 25, 2007 02:41 AM
148233418	NM_001090363.1	Jul 25, 2007 02:41 AM
148233407	NM_001087764.1	Jul 25, 2007 02:40 AM
148233367	NM_001090178.1	Jul 25, 2007 02:40 AM
148233357	NM_001088908.1	Jul 25, 2007 02:39 AM
148233347	NM_001090572.1	Jul 25, 2007 02:39 AM
148233327	NM_001090952.1	Jul 25, 2007 02:38 AM
148233309	NM_001089993.1	Jul 25, 2007 02:37 AM
148233291	NM_001088724.1	Jul 25, 2007 02:35 AM
148233277	NM_001087790.1	Jul 25, 2007 02:35 AM
148233252	NM_001088540.1	Jul 25, 2007 02:30 AM
148233246	NM_001090204.1	Jul 25, 2007 02:32 AM
148233222	NM_001090598.1	Jul 25, 2007 02:33 AM
148233206	NM_001090978.1	Jul 25, 2007 02:33 AM
148233188	NM_001090019.1	Jul 25, 2007 02:34 AM
148233162	NM_001087816.1	Jul 25, 2007 02:44 AM
148233158	NM_001089145.1	Jul 25, 2007 02:44 AM
148233114	NM_001090230.1	Jul 25, 2007 02:45 AM
148233091	NM_001088960.1	Jul 25, 2007 02:46 AM
148233089	NM_001090624.1	Jul 25, 2007 02:46 AM
148233081	NM_001088027.1	Jul 25, 2007 02:46 AM
148233071	NM_001091004.1	Jul 25, 2007 02:47 AM
148233055	NM_001090046.1	Jul 25, 2007 02:47 AM
148233021	NM_001087842.1	Jul 25, 2007 02:51 AM
148233017	NM_001089171.1	Jul 25, 2007 02:51 AM
148232997	NM_001089859.1	Jul 25, 2007 02:52 AM
148232963	NM_001087663.1	Jul 25, 2007 02:51 AM
148232955	NM_001090650.1	Jul 25, 2007 02:50 AM
148232943	NM_001088047.1	Jul 25, 2007 02:50 AM
148232919	NM_001090072.1	Jul 25, 2007 02:48 AM
148232893	NM_001087868.1	Jul 25, 2007 02:48 AM
148232877	NM_001088230.1	Jul 25, 2007 02:48 AM
148232873	NM_001089886.1	Jul 25, 2007 02:37 AM
148232857	NM_001088618.1	Jul 25, 2007 02:36 AM
148232835	NM_001087685.1	Jul 25, 2007 02:47 AM
148232831	NM_001089012.1	Jul 25, 2007 02:46 AM
148232829	NM_001090664.1	Jul 25, 2007 02:47 AM
148232819	NM_001088069.1	Jul 25, 2007 02:51 AM
148232813	NM_001089699.1	Jul 25, 2007 02:51 AM
148232759	NM_001089223.1	Jul 25, 2007 02:33 AM
148232753	NM_001090871.1	Jul 25, 2007 02:44 AM
148232743	NM_001088256.1	Jul 25, 2007 02:48 AM
148232741	NM_001089912.1	Jul 25, 2007 02:50 AM
148232721	NM_001088644.1	Jul 25, 2007 02:51 AM
148232717	NM_001090308.1	Jul 25, 2007 02:51 AM
148232701	NM_001087709.1	Jul 25, 2007 02:38 AM
148232687	NM_001088087.1	Jul 25, 2007 02:36 AM
148232681	NM_001089726.1	Jul 25, 2007 02:46 AM
148232669	NM_001088461.1	Jul 25, 2007 02:48 AM
148232633	NM_001087920.1	Jul 25, 2007 02:45 AM
148232631	NM_001089249.1	Jul 25, 2007 02:44 AM
148232613	NM_001088282.1	Jul 25, 2007 02:32 AM
148232609	NM_001089938.1	Jul 25, 2007 02:30 AM
148232572	NM_001087735.1	Jul 25, 2007 02:39 AM
148232570	NM_001089064.1	Jul 25, 2007 02:42 AM
148232566	NM_001090714.1	Jul 25, 2007 02:49 AM
148232556	NM_001088109.1	Jul 25, 2007 02:33 AM
148232552	NM_001089752.1	Jul 25, 2007 02:36 AM
148232514	NM_001090545.1	Jul 25, 2007 02:41 AM
148232504	NM_001087946.1	Jul 25, 2007 02:51 AM
148232490	NM_001090923.1	Jul 25, 2007 02:50 AM
148232480	NM_001088308.1	Jul 25, 2007 02:45 AM
148232438	NM_001089090.1	Jul 25, 2007 02:44 AM
148232436	NM_001090740.1	Jul 25, 2007 02:44 AM
148232422	NM_001088133.1	Jul 25, 2007 02:35 AM
148232420	NM_001089778.1	Jul 25, 2007 02:37 AM
148232398	NM_001087584.1	Jul 25, 2007 02:42 AM
148232378	NM_001087972.1	Jul 25, 2007 02:46 AM
148232372	NM_001089299.1	Jul 25, 2007 02:51 AM
148232356	NM_001088330.1	Jul 25, 2007 02:39 AM
148232314	NM_001089116.1	Jul 25, 2007 02:35 AM
148232308	NM_001090766.1	Jul 25, 2007 02:46 AM
148232303	NM_001088155.1	Jul 25, 2007 02:36 AM
148232299	NM_001089804.1	Jul 25, 2007 02:51 AM
148232271	NM_001087610.1	Jul 25, 2007 02:43 AM
148232245	NM_001089618.1	Jul 25, 2007 02:40 AM
148232231	NM_001088356.1	Jul 25, 2007 02:39 AM
148232207	NM_001088747.1	Jul 25, 2007 02:38 AM
148232203	NM_001090412.1	Jul 25, 2007 02:39 AM
148232181	NM_001090792.1	Jul 25, 2007 02:36 AM
148232171	NM_001088175.1	Jul 25, 2007 02:36 AM
148232149	NM_001088563.1	Jul 25, 2007 02:35 AM
148232129	NM_001087634.1	Jul 25, 2007 02:32 AM
148232105	NM_001089644.1	Jul 25, 2007 02:33 AM
148232065	NM_001090438.1	Jul 25, 2007 02:45 AM
148232037	NM_001088201.1	Jul 25, 2007 02:47 AM
148232021	NM_001088589.1	Jul 25, 2007 02:47 AM
148232011	NM_001090253.1	Jul 25, 2007 02:51 AM
148231977	NM_001089670.1	Jul 25, 2007 02:51 AM
148231962	NM_001088408.1	Jul 25, 2007 02:52 AM
148231942	NM_001088798.1	Jul 25, 2007 02:50 AM
148231938	NM_001090464.1	Jul 25, 2007 02:49 AM
148231912	NM_001088227.1	Jul 25, 2007 02:48 AM
148231840	NM_001088434.1	Jul 25, 2007 02:30 AM
148231826	NM_001087508.1	NM_001087507.1	Jul 25, 2007 02:51 AM
148231818	NM_001090490.1	Jul 25, 2007 02:41 AM
148231814	NM_001088824.1	Jul 25, 2007 02:42 AM
148231697	NM_001087531.1	Jul 25, 2007 02:42 AM
148231691	NM_001088850.1	Jul 25, 2007 02:33 AM
148231687	NM_001090516.1	Jul 25, 2007 02:49 AM
148231636	NM_001088667.1	Jul 25, 2007 02:42 AM
148231622	NM_001090331.1	Jul 25, 2007 02:36 AM
148231580	NM_001088484.1	Jul 25, 2007 02:33 AM
148231572	NM_001090146.1	Jul 25, 2007 02:38 AM
148231565	NM_001087557.1	Jul 25, 2007 02:49 AM
148231561	NM_001088876.1	Jul 25, 2007 02:47 AM
148231521	NM_001089961.1	Jul 25, 2007 02:33 AM
148231511	NM_001088693.1	Jul 25, 2007 02:38 AM
148231501	NM_001090357.1	Jul 25, 2007 02:41 AM
148231451	NM_001088510.1	Jul 25, 2007 02:48 AM
148231449	NM_001090172.1	Jul 25, 2007 02:39 AM
148231435	NM_001088902.1	Jul 25, 2007 02:51 AM
148231395	NM_001089987.1	Jul 25, 2007 02:51 AM
148231379	NM_001088718.1	Jul 25, 2007 02:48 AM
148231363	NM_001087784.1	Jul 25, 2007 02:44 AM
148231327	NM_001090198.1	Jul 25, 2007 02:38 AM
148231325	NM_001088534.1	Jul 25, 2007 02:45 AM
148231309	NM_001088928.1	Jul 25, 2007 02:52 AM
148231290	NM_001090972.1	Jul 25, 2007 02:36 AM
148231276	NM_001090013.1	Jul 25, 2007 02:38 AM
148231258	NM_001088744.1	Jul 25, 2007 02:33 AM
148231238	NM_001087810.1	Jul 25, 2007 02:40 AM
148231236	NM_001089139.1	Jul 25, 2007 02:32 AM
148231216	NM_001089827.1	Jul 25, 2007 02:42 AM
148231194	NM_001090224.1	Jul 25, 2007 02:42 AM
148231176	NM_001088954.1	Jul 25, 2007 02:43 AM
148231170	NM_001090618.1	Jul 25, 2007 02:45 AM
148231154	NM_001090998.1	Jul 25, 2007 02:52 AM
148231140	NM_001090040.1	Jul 25, 2007 02:48 AM
148231108	NM_001087836.1	Jul 25, 2007 02:30 AM
148231082	NM_001089853.1	Jul 25, 2007 02:51 AM
148231048	NM_001088980.1	Jul 25, 2007 02:47 AM
148231042	NM_001090644.1	Jul 25, 2007 02:32 AM
148231026	NM_001091022.1	Jul 25, 2007 02:35 AM
148231014	NM_001090066.1	Jul 25, 2007 02:41 AM
148230984	NM_001087862.1	Jul 25, 2007 02:32 AM
148230964	NM_001089880.1	Jul 25, 2007 02:36 AM
148230946	NM_001088612.1	Jul 25, 2007 02:48 AM
148230930	NM_001087681.1	Jul 25, 2007 02:49 AM
148230914	NM_001088065.1	Jul 25, 2007 02:49 AM
148230906	NM_001089693.1	Jul 25, 2007 02:50 AM
148230890	NM_001090092.1	Jul 25, 2007 02:52 AM
148230880	NM_001087505.1	NM_001087504.1	Jul 25, 2007 02:47 AM
148230864	NM_001087888.1	Jul 25, 2007 02:47 AM
148230856	NM_001089217.1	Jul 25, 2007 02:47 AM
148230850	NM_001090865.1	Jul 25, 2007 02:46 AM
148230840	NM_001088250.1	Jul 25, 2007 02:46 AM
148230836	NM_001089906.1	Jul 25, 2007 02:44 AM
148230820	NM_001088638.1	Jul 25, 2007 02:44 AM
148230812	NM_001090302.1	Jul 25, 2007 02:33 AM
148230795	NM_001087703.1	Jul 25, 2007 02:33 AM
148230793	NM_001089032.1	Jul 25, 2007 02:35 AM
148230789	NM_001090684.1	Jul 25, 2007 02:36 AM
148230777	NM_001089720.1	Jul 25, 2007 02:36 AM
148230760	NM_001088455.1	Jul 25, 2007 02:37 AM
148230730	NM_001087914.1	Jul 25, 2007 02:40 AM
148230728	NM_001089243.1	Jul 25, 2007 02:40 AM
148230718	NM_001088732.1	Jul 25, 2007 02:31 AM
148230706	NM_001090774.1	Jul 25, 2007 02:50 AM
148230678	NM_001089124.1	Jul 25, 2007 02:49 AM
148230672	NM_001089932.1	Jul 25, 2007 02:43 AM
148230664	NM_001090068.1	Jul 25, 2007 02:37 AM
148230656	NM_001087850.1	Jul 25, 2007 02:47 AM
148230650	NM_001087533.1	Jul 25, 2007 02:40 AM
148230646	NM_001088276.1	Jul 25, 2007 02:41 AM
148230626	NM_001088221.1	Jul 25, 2007 02:44 AM
148230612	NM_001090931.1	Jul 25, 2007 02:44 AM
148230608	NM_001088597.1	Jul 25, 2007 02:45 AM
148230588	NM_001089293.1	Jul 25, 2007 02:42 AM
148230574	NM_001089231.1	Jul 25, 2007 02:51 AM
148230570	NM_001090891.1	Jul 25, 2007 02:41 AM
148230546	NM_001087766.1	Jul 25, 2007 02:39 AM
148230544	NM_001090382.1	Jul 25, 2007 02:35 AM
148230534	NM_001089646.1	Jul 25, 2007 02:41 AM
148230518	NM_001087671.1	Jul 25, 2007 02:36 AM
148230514	NM_001090626.1	Jul 25, 2007 02:42 AM
148230494	NM_001088726.1	Jul 25, 2007 02:41 AM
148230453	NM_001087604.1	Jul 25, 2007 02:44 AM
148230441	NM_001089179.1	Jul 25, 2007 02:47 AM
148230425	NM_001088458.1	Aug 25, 2010 12:33 AM
148230425	NM_001087492.1	NM_001087493.1	Jul 25, 2007 02:47 AM
148230423	NM_001088922.1	Jul 25, 2007 02:35 AM
148230381	NM_001089894.1	Jul 25, 2007 02:43 AM
148230295	NM_001089269.1	Jul 25, 2007 02:33 AM
148230271	NM_001088270.1	Jul 25, 2007 02:51 AM
148230217	NM_001088603.1	Jul 25, 2007 02:37 AM
148230205	NM_001088177.1	Jul 25, 2007 02:41 AM
148230197	NM_001090304.1	Jul 25, 2007 02:36 AM
148230185	NM_001088994.1	Jul 25, 2007 02:37 AM
148230177	NM_001088053.1	Jul 25, 2007 02:31 AM
148230173	NM_001089934.1	Jul 25, 2007 02:36 AM
148230143	NM_001090174.1	Jul 25, 2007 02:39 AM
148230131	NM_001088049.1	Jul 25, 2007 02:39 AM
148230113	NM_001088512.1	Jul 25, 2007 02:39 AM
148230093	NM_001090134.1	Jul 25, 2007 02:41 AM
148230069	NM_001089695.1	Jul 25, 2007 02:36 AM
148230012	NM_001088498.1	Jul 25, 2007 02:43 AM
148230004	NM_001090160.1	Jul 25, 2007 02:41 AM
148229986	NM_001089112.1	Jul 25, 2007 02:31 AM
148229972	NM_001089969.1	Jul 25, 2007 02:39 AM
148229970	NM_001087757.1	Jul 25, 2007 02:35 AM
148229968	NM_001088163.1	Jul 25, 2007 02:33 AM
148229920	NM_001087687.1	Jul 25, 2007 02:41 AM
148229909	NM_001091024.1	Jul 25, 2007 02:37 AM
148229895	NM_001089672.1	Jul 25, 2007 02:40 AM
148229863	NM_001090255.1	Jul 25, 2007 02:41 AM
148229837	NM_001089167.1	Jul 25, 2007 02:37 AM
148229833	NM_001088669.1	Jul 25, 2007 02:39 AM
148229829	NM_001090788.1	Jul 25, 2007 02:30 AM
148229809	NM_001088033.1	Jul 25, 2007 02:40 AM
148229805	NM_001088079.1	Jul 25, 2007 02:50 AM
148229756	NM_001090814.1	Jul 25, 2007 02:32 AM
148229748	NM_001089678.1	Jul 25, 2007 02:44 AM
148229746	NM_001090290.1	Jul 25, 2007 02:46 AM
148229698	NM_001090943.1	Jul 25, 2007 02:41 AM
148229670	NM_001087743.1	Jul 25, 2007 02:43 AM
148229653	NM_001090762.1	Jul 25, 2007 02:31 AM
148229643	NM_001090486.1	Jul 25, 2007 02:33 AM
148229615	NM_001089714.1	Jul 25, 2007 02:50 AM
148229586	NM_001087717.1	Jul 25, 2007 02:45 AM
148229564	NM_001088738.1	Jul 25, 2007 02:38 AM
148229512	NM_001087651.1	Jul 25, 2007 02:33 AM
148229502	NM_001088402.1	Jul 25, 2007 02:40 AM
148229428	NM_001088780.1	Jul 25, 2007 02:46 AM
148229426	NM_001090716.1	Jul 25, 2007 02:42 AM
148229378	NM_001090042.1	Jul 25, 2007 02:37 AM
148229364	NM_001087636.1	Jul 25, 2007 02:41 AM
148229347	NM_001090015.1	Jul 25, 2007 02:38 AM
148229341	NM_001090109.1	Jul 25, 2007 02:39 AM
148229337	NM_001089882.1	Jul 25, 2007 02:37 AM
148229329	NM_001088884.1	Jul 25, 2007 02:38 AM
148229317	NM_001088364.1	Jul 25, 2007 02:52 AM
148229277	NM_001096756.1	Feb 13, 2010 12:36 AM
148229275	NM_001088153.1	Jul 25, 2007 02:31 AM
148229269	NM_001087948.1	Jul 25, 2007 02:42 AM
148229211	NM_001090722.1	Jul 25, 2007 02:49 AM
148229194	NM_001089792.1	Jul 25, 2007 02:44 AM
148229159	NM_001089640.1	Jul 25, 2007 02:32 AM
148229116	NM_001090583.1	Jul 25, 2007 02:43 AM
148229100	NM_001089800.1	Jul 25, 2007 02:31 AM
148229093	NM_001088870.1	Jul 25, 2007 02:50 AM
148229085	NM_001089632.1	Jul 25, 2007 02:32 AM
148229057	NM_001090666.1	Jul 25, 2007 02:41 AM
148229055	NM_001087792.1	Jul 25, 2007 02:42 AM
148229040	NM_001088111.1	Jul 25, 2007 02:42 AM
148229002	NM_001089832.1	Jul 25, 2007 02:41 AM
148228994	NM_001088591.1	Jul 25, 2007 02:41 AM
148228962	NM_001088551.1	Jul 25, 2007 02:32 AM
148228956	NM_001088071.1	Jul 25, 2007 02:42 AM
148228920	NM_001090754.1	Jul 25, 2007 02:44 AM
148228913	NM_001089193.1	Jul 25, 2007 02:37 AM
148228911	NM_001088974.1	Jul 25, 2007 02:32 AM
148228852	NM_001087598.1	Jul 25, 2007 02:43 AM
148228840	NM_001087711.1	Jul 25, 2007 02:43 AM
148228816	NM_001088223.1	Jul 25, 2007 02:33 AM
148228814	NM_001088430.1	Jul 25, 2007 02:33 AM
148228804	NM_001087731.1	Jul 25, 2007 02:36 AM
148228800	NM_001089078.1	Jul 25, 2007 02:46 AM
148228777	NM_001087749.1	Jul 25, 2007 02:46 AM
148228769	NM_001087727.1	Jul 25, 2007 02:45 AM
148228767	NM_001088238.1	Jul 25, 2007 02:38 AM
148228755	NM_001087974.1	Jul 25, 2007 02:42 AM
148228735	NM_001090080.1	Jul 25, 2007 02:43 AM
148228731	NM_001088577.1	Jul 25, 2007 02:35 AM
148228723	NM_001088410.1	Jul 25, 2007 02:40 AM
148228717	NM_001088358.1	Jul 25, 2007 02:41 AM
148228701	NM_001087659.1	Jul 25, 2007 02:37 AM
148228695	NM_001088982.1	Jul 25, 2007 02:37 AM
148228688	NM_001088171.1	Jul 25, 2007 02:31 AM
148228664	NM_001090249.1	Jul 25, 2007 02:32 AM
148228650	NM_001088492.1	Jul 25, 2007 02:36 AM
148228640	NM_001088792.1	Jul 25, 2007 02:35 AM
148228638	NM_001090458.1	Jul 25, 2007 02:35 AM
148228632	NM_001088910.1	Jul 25, 2007 02:40 AM
148228614	NM_001090054.1	Jul 25, 2007 02:43 AM
148228602	NM_001090974.1	Jul 25, 2007 02:38 AM
148228596	NM_001090728.1	Jul 25, 2007 02:46 AM
148228578	NM_001090736.1	Jul 25, 2007 02:35 AM
148228558	NM_001089060.1	Jul 25, 2007 02:36 AM
148228534	NM_001088878.1	Jul 25, 2007 02:39 AM
148228522	NM_001088442.1	Jul 25, 2007 02:33 AM
148228520	NM_001090103.1	Jul 25, 2007 02:33 AM
148228500	NM_001090377.1	Jul 25, 2007 02:43 AM
148228475	NM_001090226.1	Jul 25, 2007 02:38 AM
148228451	NM_001089086.1	Jul 25, 2007 02:35 AM
148228443	NM_001087882.1	Jul 25, 2007 02:49 AM
148228441	NM_001089211.1	Jul 25, 2007 02:49 AM
148228387	NM_001089199.1	Jul 25, 2007 02:40 AM
148228363	NM_001098442.1	Jan 26, 2010 02:23 PM
148228343	NM_001089000.1	Jul 25, 2007 02:48 AM
148228335	NM_001090710.1	Jul 25, 2007 02:36 AM
148228329	NM_001090702.1	Jul 25, 2007 02:51 AM
148228327	NM_001090850.1	Jul 25, 2007 02:43 AM
148228302	NM_001090400.1	Jul 25, 2007 02:34 AM
148228274	NM_001089975.1	Jul 25, 2007 02:39 AM
148228254	NM_001087772.1	Jul 25, 2007 02:35 AM
148228246	NM_001090492.1	Jul 25, 2007 02:40 AM
148228206	NM_001090992.1	Jul 25, 2007 02:50 AM
148228192	NM_001088278.1	Jul 25, 2007 02:36 AM
148228151	NM_001087870.1	Jul 25, 2007 02:40 AM
148228125	NM_001090656.1	Jul 25, 2007 02:49 AM
148228093	NM_001089940.1	Jul 25, 2007 02:43 AM
148228075	NM_001089666.1	Jul 25, 2007 02:32 AM
148228065	NM_001088806.1	Jul 25, 2007 02:44 AM
148228057	NM_001089658.1	Jul 25, 2007 02:36 AM
148227995	NM_001087489.1	NM_001087490.1	Jul 25, 2007 02:44 AM
148227987	NM_001087592.1	Jul 25, 2007 02:48 AM
148227977	NM_001089098.1	Jul 25, 2007 02:35 AM
148227973	NM_001090748.1	Jul 25, 2007 02:36 AM
148227971	NM_001087559.1	Jul 25, 2007 02:39 AM
148227941	NM_001088640.1	Jul 25, 2007 02:36 AM
148227921	NM_001088264.1	Jul 25, 2007 02:48 AM
148227889	NM_001088105.1	Jul 25, 2007 02:36 AM
148227887	NM_001088169.1	Jul 25, 2007 02:37 AM
148227871	NM_001087642.1	Jul 25, 2007 02:47 AM
148227869	NM_001090768.1	Jul 25, 2007 02:42 AM
148227867	NM_001087755.1	Jul 25, 2007 02:42 AM
148227865	NM_001087606.1	Jul 25, 2007 02:30 AM
148227843	NM_001089084.1	Jul 25, 2007 02:39 AM
148227819	NM_001090638.1	Jul 25, 2007 02:33 AM
148227807	NM_001088370.1	Jul 25, 2007 02:31 AM
148227797	NM_001090925.1	Jul 25, 2007 02:42 AM
148227769	NM_001088838.1	Jul 25, 2007 02:40 AM
148227735	NM_001088720.1	Jul 25, 2007 02:39 AM
148227729	NM_001090478.1	Jul 25, 2007 02:38 AM
148227693	NM_001089037.1	Jul 25, 2007 02:40 AM
148227683	NM_001087934.1	Jul 25, 2007 02:47 AM
148227681	NM_001089263.1	Jul 25, 2007 02:47 AM
148227635	NM_001090148.1	Jul 25, 2007 02:39 AM
148227601	NM_001089104.1	Jul 25, 2007 02:44 AM
148227587	NM_001089620.1	Jul 25, 2007 02:41 AM
148227569	NM_001089873.1	Jul 25, 2007 02:48 AM
148227541	NM_001088626.1	Jul 25, 2007 02:43 AM
148227497	NM_001088585.1	Jul 25, 2007 02:32 AM
148227495	NM_001087922.1	Jul 25, 2007 02:43 AM
148227491	NM_001089748.1	Jul 25, 2007 02:35 AM
148227470	NM_001088583.1	Jul 25, 2007 02:41 AM
148227416	NM_001088707.1	Jul 25, 2007 02:39 AM
148227397	NM_001089746.1	Jul 25, 2007 02:51 AM
148227377	NM_001090247.1	Jul 25, 2007 02:42 AM
148227357	NM_001089829.1	Jul 25, 2007 02:38 AM
148227355	NM_001088457.1	Jul 25, 2007 02:36 AM
148227339	NM_001090060.1	Jul 25, 2007 02:47 AM
148227335	NM_001089955.1	Jul 25, 2007 02:49 AM
148227319	NM_001090591.1	Jul 25, 2007 02:30 AM
148227294	NM_001087729.1	Jul 25, 2007 02:46 AM
148227290	NM_001089058.1	Jul 25, 2007 02:36 AM
148227286	NM_001090708.1	Jul 25, 2007 02:43 AM
148227268	NM_001090371.1	Jul 25, 2007 02:46 AM
148227259	NM_001088015.1	Jul 25, 2007 02:49 AM
148227229	NM_001090780.1	Jul 25, 2007 02:33 AM
148227213	NM_001090734.1	Jul 25, 2007 02:43 AM
148227173	NM_001089888.1	Jul 25, 2007 02:41 AM
148227167	NM_001090434.1	Jul 25, 2007 02:32 AM
148227157	NM_001089130.1	Jul 25, 2007 02:33 AM
148227153	NM_001090911.1	Jul 25, 2007 02:47 AM
148227135	NM_001088463.1	Jul 25, 2007 02:43 AM
148227123	NM_001090359.1	Jul 25, 2007 02:39 AM
148227086	NM_001088812.1	Jul 25, 2007 02:38 AM
148227041	NM_001088121.1	Jul 25, 2007 02:45 AM
148227039	NM_001088258.1	Jul 25, 2007 02:43 AM
148227013	NM_001088988.1	Jul 25, 2007 02:39 AM
148227005	NM_001088826.1	Jul 25, 2007 02:40 AM
148227001	NM_001088486.1	Jul 25, 2007 02:39 AM
148226989	NM_001087856.1	Jul 25, 2007 02:48 AM
148226977	NM_001088614.1	Jul 25, 2007 02:37 AM
148226940	NM_001088695.1	Jul 25, 2007 02:39 AM
148226932	NM_001090440.1	Jul 25, 2007 02:41 AM
148226911	NM_001088557.1	Jul 25, 2007 02:41 AM
148226905	NM_001090333.1	Jul 25, 2007 02:39 AM
148226903	NM_001088936.1	Jul 25, 2007 02:42 AM
148226890	NM_001090284.1	Jul 25, 2007 02:41 AM
148226888	NM_001089914.1	Jul 25, 2007 02:43 AM
148226836	NM_001090325.1	Jul 25, 2007 02:37 AM
148226826	NM_001090893.1	Jul 25, 2007 02:36 AM
148226822	NM_001088948.1	Jul 25, 2007 02:50 AM
148226804	NM_001088141.1	Jul 25, 2007 02:47 AM
148226796	NM_001088448.1	Jul 25, 2007 02:39 AM
148226794	NM_001087994.1	Jul 25, 2007 02:30 AM
148226786	NM_001090452.1	Jul 25, 2007 02:36 AM
148226774	NM_001088681.1	Jul 25, 2007 02:42 AM
148226754	NM_001088310.1	Jul 25, 2007 02:42 AM
148226752	NM_001089786.1	Jul 25, 2007 02:47 AM
148226748	NM_001098427.1	Dec 19, 2008 01:07 AM
148226748	NM_001088284.1	Jul 25, 2007 02:43 AM
148226744	NM_001088161.1	Jul 25, 2007 02:50 AM
148226730	NM_001090086.1	Jul 25, 2007 02:49 AM
148226728	NM_001090859.1	Jul 25, 2007 02:49 AM
148226713	NM_001090885.1	Jul 25, 2007 02:50 AM
148226701	NM_001087876.1	Jul 25, 2007 02:52 AM
148226679	NM_001087697.1	Jul 25, 2007 02:49 AM
148226665	NM_001088322.1	Jul 25, 2007 02:45 AM
148226621	NM_001088428.1	Jul 25, 2007 02:49 AM
148226617	NM_001089614.1	Jul 25, 2007 02:30 AM
148226592	NM_001090094.1	Jul 25, 2007 02:36 AM
148226570	NM_001091000.1	Jul 25, 2007 02:38 AM
148226564	NM_001090678.1	Jul 25, 2007 02:50 AM
148226552	NM_001090339.1	Jul 25, 2007 02:36 AM
148226548	NM_001087723.1	Jul 25, 2007 02:51 AM
148226521	NM_001088652.1	Jul 25, 2007 02:46 AM
148226517	NM_001088089.1	Jul 25, 2007 02:43 AM
148226505	NM_001088571.1	Jul 25, 2007 02:47 AM
148226480	NM_001088469.1	Jul 25, 2007 02:36 AM
148226478	NM_001088930.1	Jul 25, 2007 02:38 AM
148226474	NM_001089821.1	Jul 25, 2007 02:43 AM
148226466	NM_001087665.1	Jul 25, 2007 02:39 AM
148226443	NM_001089046.1	Jul 25, 2007 02:43 AM
148226437	NM_001090154.1	Jul 25, 2007 02:37 AM
148226435	NM_001089855.1	Jul 25, 2007 02:37 AM
148226358	NM_001090192.1	Jul 25, 2007 02:31 AM
148226347	NM_001089026.1	Jul 25, 2007 02:50 AM
148226327	NM_001090034.1	Jul 25, 2007 02:48 AM
148226313	NM_001088559.1	Jul 25, 2007 02:31 AM
148226275	NM_001090589.1	Jul 25, 2007 02:47 AM
148226225	NM_001088436.1	Jul 25, 2007 02:40 AM
148226211	NM_001090001.1	Jul 25, 2007 02:38 AM
148226205	NM_001088376.1	Jul 25, 2007 02:36 AM
148226199	NM_001089763.1	Jul 25, 2007 02:43 AM
148226195	NM_001090518.1	Jul 25, 2007 02:40 AM
148226193	NM_001089245.1	Jul 25, 2007 02:36 AM
148226177	NM_001090432.1	Jul 25, 2007 02:33 AM
148226155	NM_001090696.1	Jul 25, 2007 02:32 AM
148226105	NM_001090853.1	Jul 25, 2007 02:40 AM
148226085	NM_001090414.1	Jul 25, 2007 02:41 AM
148225992	NM_001090806.1	Jul 25, 2007 02:35 AM
148225980	NM_001090074.1	Jul 25, 2007 02:40 AM
148225964	NM_001089847.1	Jul 25, 2007 02:43 AM
148225954	NM_001089754.1	Jul 25, 2007 02:42 AM
148225952	NM_001090278.1	Jul 25, 2007 02:37 AM
148225926	NM_001089008.1	Jul 25, 2007 02:37 AM
148225924	NM_001090660.1	Jul 25, 2007 02:37 AM
148225912	NM_001090007.1	Jul 25, 2007 02:37 AM
148225902	NM_001090115.1	Jul 25, 2007 02:44 AM
148225892	NM_001090388.1	Jul 25, 2007 02:42 AM
148225836	NM_001088844.1	Jul 25, 2007 02:40 AM
148225832	NM_001090510.1	Jul 25, 2007 02:49 AM
148225818	NM_001088189.1	Jul 25, 2007 02:35 AM
148225812	NM_001090504.1	Jul 25, 2007 02:40 AM
148225788	NM_001090446.1	Jul 25, 2007 02:46 AM
148225764	NM_001088352.1	Jul 25, 2007 02:30 AM
148225745	NM_001089092.1	Jul 25, 2007 02:42 AM
148225717	NM_001089963.1	Jul 25, 2007 02:39 AM
148225711	NM_001087496.1	NM_001087495.1	Jul 25, 2007 02:38 AM
148225688	NM_001087838.1	Jul 25, 2007 02:37 AM
148225680	NM_001087916.1	Jul 25, 2007 02:36 AM
148225666	NM_001088896.1	Jul 25, 2007 02:45 AM
148225655	NM_001088378.1	Jul 25, 2007 02:32 AM
148225637	NM_001087940.1	Jul 25, 2007 02:48 AM
148225629	NM_001090206.1	Jul 25, 2007 02:42 AM
148225621	NM_001088416.1	Jul 25, 2007 02:44 AM
148225615	NM_001089159.1	Jul 25, 2007 02:46 AM
148225589	NM_001087830.1	Jul 25, 2007 02:46 AM
148225571	NM_001090365.1	Jul 25, 2007 02:39 AM
148225553	NM_001087677.1	Jul 25, 2007 02:48 AM
148225547	NM_001090620.1	Jul 25, 2007 02:38 AM
148225535	NM_001088384.1	Jul 25, 2007 02:41 AM
148225529	NM_001087818.1	Jul 25, 2007 02:42 AM
148225521	NM_001088701.1	Jul 25, 2007 02:39 AM
148225449	NM_001090533.1	Jul 25, 2007 02:47 AM
148225443	NM_001090541.1	Jul 25, 2007 02:35 AM
148225439	NM_001087928.1	Jul 25, 2007 02:38 AM
148225435	NM_001090232.1	Jul 25, 2007 02:40 AM
148225425	NM_001087622.1	Jul 25, 2007 02:32 AM
148225355	NM_001090600.1	Jul 25, 2007 02:42 AM
148225347	NM_001089812.1	Jul 25, 2007 02:50 AM
148225309	NM_001088522.1	Jul 25, 2007 02:51 AM
148225301	NM_001090380.1	Jul 25, 2007 02:37 AM
148225277	NM_001090200.1	Jul 25, 2007 02:38 AM
148225265	NM_001088203.1	Jul 25, 2007 02:41 AM
148225243	NM_001088209.1	Jul 25, 2007 02:45 AM
148225235	NM_001090559.1	Jul 25, 2007 02:45 AM
148225219	NM_001090048.1	Jul 25, 2007 02:38 AM
148225187	NM_001090547.1	Jul 25, 2007 02:42 AM
148225173	NM_001089740.1	Jul 25, 2007 02:51 AM
148225155	NM_001088135.1	Jul 25, 2007 02:42 AM
148225121	NM_001088099.1	Jul 25, 2007 02:51 AM
148225117	NM_001089225.1	Jul 25, 2007 02:42 AM
148225111	NM_001090760.1	Jul 25, 2007 02:35 AM
148225083	NM_001089110.1	Jul 25, 2007 02:31 AM
148225054	NM_001088316.1	Jul 25, 2007 02:44 AM
148225036	NM_001090873.1	Jul 25, 2007 02:42 AM
148225022	NM_001090553.1	Jul 25, 2007 02:45 AM
148225008	NM_001088904.1	Jul 25, 2007 02:39 AM
148225004	NM_001090794.1	Jul 25, 2007 02:41 AM
148224967	NM_001090235.1	Jul 25, 2007 02:47 AM
148224938	NM_001089278.1	Jul 25, 2007 02:38 AM
148224930	NM_001089219.1	Jul 25, 2007 02:36 AM
148224906	NM_001090954.1	Jul 25, 2007 02:41 AM
148224886	NM_001090351.1	Jul 25, 2007 02:48 AM
148224877	NM_001089734.1	Jul 25, 2007 02:36 AM
148224805	NM_001090394.1	Jul 25, 2007 02:49 AM
148224797	NM_001087899.1	Jul 25, 2007 02:32 AM
148224787	NM_001089722.1	Jul 25, 2007 02:36 AM
148224781	NM_001089708.1	Jul 25, 2007 02:46 AM
148224763	NM_001088338.1	Jul 25, 2007 02:48 AM
148224757	NM_001087890.1	Jul 25, 2007 02:36 AM
148224743	NM_001091016.1	Jul 25, 2007 02:37 AM
148224729	NM_001089664.1	Jul 25, 2007 02:52 AM
148224701	NM_001089981.1	Jul 25, 2007 02:44 AM
148224685	NM_001090484.1	Jul 25, 2007 02:35 AM
148224659	NM_001090742.1	Jul 25, 2007 02:42 AM
148224605	NM_001090264.1	Jul 25, 2007 02:40 AM
148224599	NM_001091006.1	Jul 25, 2007 02:52 AM
148224589	NM_001088632.1	Jul 25, 2007 02:49 AM
148224579	NM_001088832.1	Jul 25, 2007 02:32 AM
148224573	NM_001090844.1	Jul 25, 2007 02:40 AM
148224543	NM_001089920.1	Jul 25, 2007 02:48 AM
148224525	NM_001087705.1	Jul 25, 2007 02:36 AM
148224519	NM_001088009.1	Jul 25, 2007 02:32 AM
148224515	NM_001088687.1	Jul 25, 2007 02:48 AM
148224491	NM_001087824.1	Jul 25, 2007 02:51 AM
148224468	NM_001088956.1	Jul 25, 2007 02:38 AM
148224466	NM_001088818.1	Jul 25, 2007 02:36 AM
148224444	NM_001089806.1	Jul 25, 2007 02:42 AM
148224442	NM_001090606.1	Jul 25, 2007 02:35 AM
148224432	NM_001088794.1	Jul 25, 2007 02:32 AM
148224420	NM_001089908.1	Jul 25, 2007 02:36 AM
148224386	NM_001087580.1	Jul 25, 2007 02:35 AM
148224372	NM_001090830.1	Jul 25, 2007 02:37 AM
148224370	NM_001088183.1	Jul 25, 2007 02:47 AM
148224348	NM_001088195.1	Jul 25, 2007 02:47 AM
148224344	NM_001088864.1	Jul 25, 2007 02:42 AM
148224342	NM_001088658.1	Jul 25, 2007 02:51 AM
148224338	NM_001088565.1	Jul 25, 2007 02:41 AM
148224279	NM_001088968.1	Jul 25, 2007 02:42 AM
148224277	NM_001090632.1	Jul 25, 2007 02:38 AM
148224232	NM_001090690.1	Jul 25, 2007 02:43 AM
148224214	NM_001088771.1	Jul 25, 2007 02:37 AM
148224191	NM_001090917.1	Jul 25, 2007 02:51 AM
148224181	NM_001087786.1	Jul 25, 2007 02:38 AM
148224169	NM_001090612.1	Jul 25, 2007 02:50 AM
148224163	NM_001088290.1	Jul 25, 2007 02:41 AM
148224157	NM_001090672.1	Jul 25, 2007 02:51 AM
148224151	NM_001091012.1	Jul 25, 2007 02:32 AM
148224137	NM_001089701.1	Jul 25, 2007 02:42 AM
148224113	NM_001089946.1	Jul 25, 2007 02:41 AM
148224099	NM_001090406.1	Jul 25, 2007 02:49 AM
148224073	NM_001090498.1	Jul 25, 2007 02:32 AM
148224069	NM_001089861.1	Jul 25, 2007 02:39 AM
148223981	NM_001090028.1	Jul 25, 2007 02:50 AM
148223975	NM_001088404.1	Jul 25, 2007 02:32 AM
148223971	NM_001088768.1	Jul 25, 2007 02:32 AM
148223967	NM_001090408.1	Jul 25, 2007 02:30 AM
148223929	NM_001087737.1	Jul 25, 2007 02:43 AM
148223923	NM_001088093.1	Jul 25, 2007 02:32 AM
148223916	NM_001089272.1	Jul 25, 2007 02:39 AM
148223867	NM_001089867.1	Jul 25, 2007 02:51 AM
148223849	NM_001088766.1	Jul 25, 2007 02:30 AM
148223843	NM_001089072.1	Jul 25, 2007 02:51 AM
148223829	NM_001088304.1	Jul 25, 2007 02:35 AM
148223809	NM_001088620.1	Jul 25, 2007 02:41 AM
148223807	NM_001090879.1	Jul 25, 2007 02:49 AM
148223797	NM_001087804.1	Jul 25, 2007 02:40 AM
148223793	NM_001088890.1	Jul 25, 2007 02:40 AM
148223773	NM_001089020.1	Jul 25, 2007 02:49 AM
148223753	NM_001088390.1	Jul 25, 2007 02:46 AM
148223747	NM_001089995.1	Jul 25, 2007 02:41 AM
148223745	NM_001090966.1	Jul 25, 2007 02:35 AM
148223741	NM_001090960.1	Jul 25, 2007 02:44 AM
148223725	NM_001090948.1	Jul 25, 2007 02:39 AM
148223707	NM_001090980.1	Jul 25, 2007 02:43 AM
148223674	NM_001090319.1	Jul 25, 2007 02:40 AM
148223650	NM_001088115.1	Jul 25, 2007 02:48 AM
148223614	NM_001090186.1	Jul 25, 2007 02:42 AM
148223608	NM_001089141.1	Jul 25, 2007 02:38 AM
148223590	NM_001087844.1	Jul 25, 2007 02:38 AM
148223588	NM_001089173.1	Jul 25, 2007 02:38 AM
148223548	NM_001088528.1	Jul 25, 2007 02:31 AM
148223546	NM_001089815.1	Jul 25, 2007 02:38 AM
148223530	NM_001087501.1	NM_001087502.1	Jul 25, 2007 02:37 AM
148223518	NM_001090460.1	Jul 25, 2007 02:32 AM
148223506	NM_001087539.1	Jul 25, 2007 02:35 AM
148223486	NM_001088396.1	Jul 25, 2007 02:36 AM
148223466	NM_001090812.1	Jul 25, 2007 02:45 AM
148223442	NM_001090820.1	Jul 25, 2007 02:41 AM
148223438	NM_001088344.1	Jul 25, 2007 02:43 AM
148223420	NM_001088820.1	Jul 25, 2007 02:33 AM
148223350	NM_001087630.1	Jul 25, 2007 02:31 AM
148223344	NM_001087968.1	Jul 25, 2007 02:35 AM
148223304	NM_001087545.1	Jul 25, 2007 02:41 AM
148223298	NM_001088059.1	Jul 25, 2007 02:49 AM
148223294	NM_001090296.1	Jul 25, 2007 02:49 AM
148223290	NM_001088232.1	Jul 25, 2007 02:41 AM
148223282	NM_001088244.1	Jul 25, 2007 02:49 AM
148223274	NM_001089153.1	Jul 25, 2007 02:32 AM
148223232	NM_001089728.1	Jul 25, 2007 02:43 AM
148223230	NM_001089237.1	Jul 25, 2007 02:50 AM
148223228	NM_001088542.1	Jul 25, 2007 02:42 AM
148223202	NM_001087525.1	Jul 25, 2007 02:51 AM
148223190	NM_001087578.1	Jul 25, 2007 02:37 AM
148223172	NM_001089295.1	Jul 25, 2007 02:35 AM
148223162	NM_001088029.1	Jul 25, 2007 02:51 AM
148223146	NM_001087778.1	Jul 25, 2007 02:34 AM
148223138	NM_001090212.1	Jul 25, 2007 02:37 AM
148223080	NM_001089257.1	Jul 25, 2007 02:40 AM
148223074	NM_001088675.1	Jul 25, 2007 02:36 AM
148223058	NM_001088197.1	Jul 25, 2007 02:32 AM
148223020	NM_001089251.1	Jul 25, 2007 02:43 AM
148223000	NM_001090472.1	Jul 25, 2007 02:43 AM
148222992	NM_001090945.1	Jul 25, 2007 02:35 AM
148222988	NM_001088350.1	Jul 25, 2007 02:49 AM
148222959	NM_001087612.1	Jul 25, 2007 02:41 AM
148222953	NM_001089147.1	Jul 25, 2007 02:43 AM
148222949	NM_001087812.1	Jul 25, 2007 02:38 AM
148222947	NM_001088504.1	Jul 25, 2007 02:46 AM
148222907	NM_001089900.1	Jul 25, 2007 02:49 AM
148222891	NM_001088942.1	Jul 25, 2007 02:36 AM
148222875	NM_001090180.1	Jul 25, 2007 02:39 AM
148222871	NM_001089066.1	Jul 25, 2007 02:42 AM
148222869	NM_001090140.1	Jul 25, 2007 02:50 AM
148222865	NM_001087551.1	Jul 25, 2007 02:50 AM
148222827	NM_001088023.1	Jul 25, 2007 02:38 AM
148222825	NM_001090867.1	Jul 25, 2007 02:36 AM
148222809	NM_001089287.1	Jul 25, 2007 02:45 AM
148222807	NM_001090686.1	Jul 25, 2007 02:36 AM
148222805	NM_001089034.1	Jul 25, 2007 02:36 AM
148222795	NM_001089638.1	Jul 25, 2007 02:37 AM
148222782	NM_001087572.1	Jul 25, 2007 02:45 AM
148222776	NM_001088252.1	Jul 25, 2007 02:36 AM
148222760	NM_001087986.1	Jul 25, 2007 02:43 AM
148222758	NM_001089606.1	Jul 25, 2007 02:43 AM
148222726	NM_001088127.1	Jul 25, 2007 02:48 AM
148222724	NM_001089772.1	Jul 25, 2007 02:51 AM
148222686	NM_001088749.1	Jul 25, 2007 02:41 AM
148222636	NM_001088646.1	Jul 25, 2007 02:38 AM
148222628	NM_001090937.1	Jul 25, 2007 02:45 AM
148222598	NM_001090122.1	Jul 25, 2007 02:40 AM
148222594	NM_001087942.1	Jul 25, 2007 02:35 AM
148222582	NM_001087499.1	NM_001087498.1	Jul 25, 2007 02:49 AM
148222566	NM_001090241.1	Jul 25, 2007 02:35 AM
148222517	NM_001089780.1	Jul 25, 2007 02:42 AM
148222493	NM_001090345.1	Jul 25, 2007 02:42 AM
148222481	NM_001090310.1	Jul 25, 2007 02:43 AM
148222469	NM_001087586.1	Jul 25, 2007 02:42 AM
148222465	NM_001088536.1	Jul 25, 2007 02:38 AM
148222463	NM_001090568.1	Jul 25, 2007 02:39 AM
148222429	NM_001089136.1	Jul 25, 2007 02:50 AM
148222427	NM_001090786.1	Jul 25, 2007 02:41 AM
148222416	NM_001089052.1	Jul 25, 2007 02:51 AM
148222408	NM_001088332.1	Jul 25, 2007 02:42 AM
148222406	NM_001087966.1	Jul 25, 2007 02:43 AM
148222402	NM_001090420.1	Jul 25, 2007 02:51 AM
148222382	NM_001089652.1	Jul 25, 2007 02:46 AM
148222364	NM_001088003.1	Jul 25, 2007 02:42 AM
148222356	NM_001090646.1	Jul 25, 2007 02:37 AM
148222309	NM_001087992.1	Jul 25, 2007 02:48 AM
148222307	NM_001089612.1	Jul 25, 2007 02:48 AM
148222277	NM_001087798.1	Jul 25, 2007 02:41 AM
148222275	NM_001089798.1	Jul 25, 2007 02:34 AM
148222265	NM_001088129.1	Jul 25, 2007 02:35 AM
148222257	NM_001088800.1	Jul 25, 2007 02:40 AM
148222243	NM_001090919.1	Jul 25, 2007 02:35 AM
148222241	NM_001090128.1	Jul 25, 2007 02:35 AM
148222187	NM_001088760.1	Jul 25, 2007 02:30 AM
148222183	NM_001090426.1	Jul 25, 2007 02:30 AM
148222171	NM_001088916.1	Jul 25, 2007 02:32 AM
148222167	NM_001090986.1	Jul 25, 2007 02:45 AM
148222159	NM_001089626.1	Jul 25, 2007 02:52 AM
148222149	NM_001087563.1	Jul 25, 2007 02:38 AM
148222123	NM_001089838.1	Jul 25, 2007 02:47 AM
148222110	NM_001089684.1	Jul 25, 2007 02:38 AM
148222094	NM_001089774.1	Jul 25, 2007 02:35 AM
148222056	NM_001088422.1	Jul 25, 2007 02:38 AM
148222050	NM_001090836.1	Jul 25, 2007 02:30 AM
147907394	NM_001087527.1	Jul 25, 2007 02:33 AM
147907360	NM_001088530.1	Jul 25, 2007 02:44 AM
147907313	NM_001087638.1	Jul 25, 2007 02:46 AM
147907305	NM_001088051.1	Jul 25, 2007 02:45 AM
147907297	NM_001090220.1	Jul 25, 2007 02:44 AM
147907261	NM_001088107.1	Jul 25, 2007 02:46 AM
147907223	NM_001089823.1	Jul 25, 2007 02:44 AM
147907203	NM_001088334.1	Jul 25, 2007 02:52 AM
147907199	NM_001089227.1	Jul 25, 2007 02:47 AM
147907193	NM_001089957.1	Jul 25, 2007 02:43 AM
147907179	NM_001090988.1	Jul 25, 2007 02:48 AM
147907177	NM_001089808.1	Jul 25, 2007 02:42 AM
147907163	NM_001090315.1	Jul 25, 2007 02:40 AM
147907161	NM_001088386.1	Jul 25, 2007 02:49 AM
147907143	NM_001090662.1	Jul 25, 2007 02:42 AM
147907139	NM_001088081.1	Jul 25, 2007 02:31 AM
147907129	NM_001090082.1	Jul 25, 2007 02:48 AM
147907115	NM_001088274.1	Jul 25, 2007 02:34 AM
147907111	NM_001087884.1	Jul 25, 2007 02:46 AM
147907107	NM_001089213.1	Jul 25, 2007 02:46 AM
147907063	NM_001088773.1	Jul 25, 2007 02:35 AM
147907033	NM_001089983.1	Jul 25, 2007 02:44 AM
147907017	NM_001088035.1	Jul 25, 2007 02:48 AM
147906993	NM_001088424.1	Jul 25, 2007 02:50 AM
147906970	NM_001088432.1	Jul 25, 2007 02:45 AM
147906934	NM_001090537.1	Jul 25, 2007 02:41 AM
147906924	NM_001087788.1	Jul 25, 2007 02:48 AM
147906922	NM_001089054.1	Jul 25, 2007 02:46 AM
147906914	NM_001087988.1	Jul 25, 2007 02:51 AM
147906902	NM_001088494.1	Jul 25, 2007 02:37 AM
147906896	NM_001090704.1	Jul 25, 2007 02:46 AM
147906868	NM_001090887.1	Jul 25, 2007 02:46 AM
147906860	NM_001089259.1	Jul 25, 2007 02:33 AM
147906838	NM_001089239.1	Jul 25, 2007 02:46 AM
147906830	NM_001090622.1	Jul 25, 2007 02:32 AM
147906826	NM_001087707.1	Jul 25, 2007 02:49 AM
147906810	NM_001090756.1	Jul 25, 2007 02:47 AM
147906808	NM_001088444.1	Jul 25, 2007 02:41 AM
147906806	NM_001090105.1	Jul 25, 2007 02:41 AM
147906792	NM_001088354.1	Jul 25, 2007 02:51 AM
147906768	NM_001087529.1	Jul 25, 2007 02:34 AM
147906764	NM_001088011.1	Jul 25, 2007 02:48 AM
147906756	NM_001090628.1	Jul 25, 2007 02:44 AM
147906738	NM_001088665.1	Jul 25, 2007 02:32 AM
147906724	NM_001089794.1	Jul 25, 2007 02:47 AM
147906714	NM_001090347.1	Jul 25, 2007 02:50 AM
147906696	NM_001087930.1	Jul 25, 2007 02:32 AM
147906692	NM_001089878.1	Jul 25, 2007 02:44 AM
147906672	NM_001088254.1	Jul 25, 2007 02:51 AM
147906630	NM_001087782.1	Jul 25, 2007 02:41 AM
147906623	NM_001087953.1	Jul 25, 2007 02:36 AM
147906596	NM_001088840.1	Jul 25, 2007 02:50 AM
147906569	NM_001088453.1	Jul 25, 2007 02:46 AM
147906543	NM_001090003.1	Jul 25, 2007 02:49 AM
147906527	NM_001089068.1	Jul 25, 2007 02:49 AM
147906515	NM_001089106.1	Jul 25, 2007 02:47 AM
147906511	NM_001089175.1	Jul 25, 2007 02:44 AM
147906474	NM_001088709.1	Jul 25, 2007 02:49 AM
147906426	NM_001089948.1	Jul 25, 2007 02:33 AM
147906397	NM_001087959.1	Jul 25, 2007 02:49 AM
147906381	NM_001088199.1	Jul 25, 2007 02:49 AM
147906351	NM_001089765.1	Jul 25, 2007 02:50 AM
147906341	NM_001090286.1	Jul 25, 2007 02:46 AM
147906337	NM_001088689.1	Jul 25, 2007 02:43 AM
147906305	NM_001090462.1	Jul 25, 2007 02:47 AM
147906297	NM_001088306.1	Jul 25, 2007 02:32 AM
147906281	NM_001091008.1	Jul 25, 2007 02:44 AM
147906265	NM_001090329.1	Jul 25, 2007 02:32 AM
147906261	NM_001091014.1	Jul 25, 2007 02:48 AM
147906257	NM_001090585.1	Jul 25, 2007 02:47 AM
147906235	NM_001090384.1	Jul 25, 2007 02:40 AM
147906193	NM_001087713.1	Jul 25, 2007 02:48 AM
147906171	NM_001090692.1	Jul 25, 2007 02:48 AM
147906153	NM_001088211.1	Jul 25, 2007 02:51 AM
147906137	NM_001090156.1	Jul 25, 2007 02:37 AM
147906066	NM_001088225.1	Jul 25, 2007 02:47 AM
147906036	NM_001088958.1	Jul 25, 2007 02:32 AM
147905962	NM_001087800.1	Jul 25, 2007 02:49 AM
147905946	NM_001089039.1	Jul 25, 2007 02:44 AM
147905908	NM_001091026.1	Jul 25, 2007 02:38 AM
147905898	NM_001087808.1	Jul 25, 2007 02:43 AM
147905887	NM_001089680.1	Jul 25, 2007 02:52 AM
147905855	NM_001089744.1	Jul 25, 2007 02:51 AM
147905827	NM_001089163.1	Jul 25, 2007 02:36 AM
147905791	NM_001088248.1	Jul 25, 2007 02:48 AM
147905789	NM_001088217.1	Jul 25, 2007 02:51 AM
147905755	NM_001088019.1	Jul 25, 2007 02:44 AM
147905737	NM_001088061.1	Jul 25, 2007 02:45 AM
147905731	NM_001090076.1	Jul 25, 2007 02:45 AM
147905683	NM_001090674.1	Jul 25, 2007 02:37 AM
147905681	NM_001089022.1	Jul 25, 2007 02:37 AM
147905645	NM_001088561.1	Jul 25, 2007 02:40 AM
147905625	NM_001090096.1	Jul 25, 2007 02:42 AM
147905613	NM_001088360.1	Jul 25, 2007 02:37 AM
147905589	NM_001087739.1	Jul 25, 2007 02:49 AM
147905585	NM_001088722.1	Jul 25, 2007 02:48 AM
147905581	NM_001088380.1	Jul 25, 2007 02:50 AM
147905563	NM_001087774.1	Jul 25, 2007 02:49 AM
147905547	NM_001090056.1	Jul 25, 2007 02:48 AM
147905513	NM_001090373.1	Jul 25, 2007 02:49 AM
147905447	NM_001088742.1	Jul 25, 2007 02:47 AM
147905427	NM_001087938.1	Jul 25, 2007 02:41 AM
147905419	NM_001088234.1	Jul 25, 2007 02:46 AM
147905415	NM_001089875.1	Jul 25, 2007 02:45 AM
147905403	NM_001088137.1	Jul 25, 2007 02:51 AM
147905381	NM_001088298.1	Jul 25, 2007 02:47 AM
147905375	NM_001090682.1	Jul 25, 2007 02:38 AM
147905325	NM_001089884.1	Jul 25, 2007 02:41 AM
147905318	NM_001089930.1	Jul 25, 2007 02:44 AM
147905295	NM_001091020.1	Jul 25, 2007 02:51 AM
147905285	NM_001088944.1	Jul 25, 2007 02:48 AM
147905283	NM_001090608.1	Jul 25, 2007 02:48 AM
147905281	NM_001089742.1	Jul 25, 2007 02:46 AM
147905271	NM_001090881.1	Jul 25, 2007 02:36 AM
147905253	NM_001090341.1	Jul 25, 2007 02:38 AM
147905249	NM_001090017.1	Jul 25, 2007 02:46 AM
147905245	NM_001090863.1	Jul 25, 2007 02:45 AM
147905220	NM_001088125.1	Jul 25, 2007 02:46 AM
147905210	NM_001090208.1	Jul 25, 2007 02:32 AM
147905208	NM_001087762.1	Jul 25, 2007 02:41 AM
147905198	NM_001089187.1	Jul 25, 2007 02:45 AM
147905190	NM_001089991.1	Jul 25, 2007 02:49 AM
147905186	NM_001088063.1	Jul 25, 2007 02:50 AM
147905182	NM_001090176.1	Jul 25, 2007 02:52 AM
147905170	NM_001087858.1	Jul 25, 2007 02:45 AM
147905154	NM_001089132.1	Jul 25, 2007 02:51 AM
147905138	NM_001089289.1	Jul 25, 2007 02:47 AM
147905110	NM_001087852.1	Jul 25, 2007 02:48 AM
147905108	NM_001089181.1	Jul 25, 2007 02:48 AM
147905102	NM_001089143.1	Jul 25, 2007 02:44 AM
147905098	NM_001090921.1	Jul 25, 2007 02:33 AM
147905094	NM_001090640.1	Jul 25, 2007 02:45 AM
147905070	NM_001088055.1	Jul 25, 2007 02:48 AM
147905064	NM_001088697.1	Jul 25, 2007 02:40 AM
147905008	NM_001087901.1	Jul 25, 2007 02:41 AM
147905000	NM_001089221.1	Jul 25, 2007 02:52 AM
147904962	NM_001088073.1	Jul 25, 2007 02:47 AM
147904929	NM_001091002.1	Jul 25, 2007 02:32 AM
147904919	NM_001088179.1	Jul 25, 2007 02:33 AM
147904893	NM_001087679.1	Jul 25, 2007 02:41 AM
147904889	NM_001088654.1	Jul 25, 2007 02:35 AM
147904885	NM_001088328.1	Jul 25, 2007 02:39 AM
147904869	NM_001087653.1	Jul 25, 2007 02:45 AM
147904825	NM_001089730.1	Jul 25, 2007 02:48 AM
147904813	NM_001087667.1	Jul 25, 2007 02:45 AM
147904811	NM_001090976.1	Jul 25, 2007 02:46 AM
147904807	NM_001090549.1	Jul 25, 2007 02:50 AM
147904757	NM_001090298.1	Jul 25, 2007 02:46 AM
147904733	NM_001088532.1	Jul 25, 2007 02:43 AM
147904731	NM_001088788.1	Jul 25, 2007 02:52 AM
147904729	NM_001090454.1	Jul 25, 2007 02:51 AM
147904715	NM_001088524.1	Jul 25, 2007 02:49 AM
147904713	NM_001090188.1	Jul 25, 2007 02:49 AM
147904707	NM_001089776.1	Jul 25, 2007 02:36 AM
147904701	NM_001090090.1	Jul 25, 2007 02:45 AM
147904697	NM_001088340.1	Jul 25, 2007 02:47 AM
147904668	NM_001089608.1	Jul 25, 2007 02:47 AM
147904636	NM_001090529.1	Jul 25, 2007 02:32 AM
147904622	NM_001090442.1	Jul 25, 2007 02:51 AM
147904606	NM_001089169.1	Jul 25, 2007 02:35 AM
147904578	NM_001088740.1	Jul 25, 2007 02:44 AM
147904560	NM_001087878.1	Jul 25, 2007 02:48 AM
147904558	NM_001090196.1	Jul 25, 2007 02:43 AM
147904528	NM_001088131.1	Jul 25, 2007 02:36 AM
147904498	NM_001087780.1	Jul 25, 2007 02:44 AM
147904490	NM_001088123.1	Jul 25, 2007 02:47 AM
147904482	NM_001088500.1	Jul 25, 2007 02:50 AM
147904462	NM_001090321.1	Jul 25, 2007 02:50 AM
147904454	NM_001088312.1	Jul 25, 2007 02:50 AM
147904448	NM_001090474.1	Jul 25, 2007 02:43 AM
147904442	NM_001088075.1	Jul 25, 2007 02:37 AM
147904408	NM_001088976.1	Jul 25, 2007 02:45 AM
147904401	NM_001088488.1	Jul 25, 2007 02:36 AM
147904309	NM_001089094.1	Jul 25, 2007 02:50 AM
147904301	NM_001090038.1	Jul 25, 2007 02:48 AM
147904299	NM_001089834.1	Jul 25, 2007 02:43 AM
147904243	NM_001088932.1	Jul 25, 2007 02:46 AM
147904197	NM_001089080.1	Jul 25, 2007 02:47 AM
147904185	NM_001088266.1	Jul 25, 2007 02:36 AM
147904171	NM_001087751.1	Jul 25, 2007 02:47 AM
147904163	NM_001089088.1	Jul 25, 2007 02:35 AM
147904141	NM_001089100.1	Jul 25, 2007 02:45 AM
147904137	NM_001090750.1	Jul 25, 2007 02:46 AM
147904127	NM_001088802.1	Jul 25, 2007 02:51 AM
147904077	NM_001087910.1	Jul 25, 2007 02:46 AM
147904037	NM_001090410.1	Jul 25, 2007 02:47 AM
147904033	NM_001087996.1	Jul 25, 2007 02:43 AM
147904027	NM_001088045.1	Jul 25, 2007 02:37 AM
147904023	NM_001090915.1	Jul 25, 2007 02:38 AM
147903981	NM_001090738.1	Jul 25, 2007 02:35 AM
147903961	NM_001088553.1	Jul 25, 2007 02:51 AM
147903917	NM_001088544.1	Jul 25, 2007 02:32 AM
147903911	NM_001090494.1	Jul 25, 2007 02:47 AM
147903900	NM_001089233.1	Jul 25, 2007 02:36 AM
147903864	NM_001090202.1	Jul 25, 2007 02:47 AM
147903830	NM_001088926.1	Jul 25, 2007 02:50 AM
147903804	NM_001088587.1	Jul 25, 2007 02:49 AM
147903800	NM_001090889.1	Jul 25, 2007 02:36 AM
147903796	NM_001088605.1	Jul 25, 2007 02:51 AM
147903732	NM_001090266.1	Jul 25, 2007 02:48 AM
147903722	NM_001088091.1	Jul 25, 2007 02:48 AM
147903704	NM_001090652.1	Jul 25, 2007 02:45 AM
147903694	NM_001090436.1	Jul 25, 2007 02:50 AM
147903674	NM_001088031.1	Jul 25, 2007 02:44 AM
147903670	NM_001090044.1	Jul 25, 2007 02:31 AM
147903668	NM_001089697.1	Jul 25, 2007 02:42 AM
147903662	NM_001089030.1	Jul 25, 2007 02:47 AM
147903658	NM_001089849.1	Jul 25, 2007 02:45 AM
147903624	NM_001090030.1	Jul 25, 2007 02:48 AM
147903614	NM_001089904.1	Jul 25, 2007 02:50 AM
147903604	NM_001090593.1	Jul 25, 2007 02:42 AM
147903590	NM_001087683.1	Jul 25, 2007 02:41 AM
147903584	NM_001089750.1	Jul 25, 2007 02:45 AM
147903572	NM_001087866.1	Jul 25, 2007 02:40 AM
147903546	NM_001087826.1	Jul 25, 2007 02:48 AM
147903542	NM_001088067.1	Jul 25, 2007 02:42 AM
147903512	NM_001089215.1	Jul 25, 2007 02:50 AM
147903510	NM_001089074.1	Jul 25, 2007 02:43 AM
147903506	NM_001090724.1	Jul 25, 2007 02:43 AM
147903498	NM_001088471.1	Jul 25, 2007 02:31 AM
147903472	NM_001089048.1	Jul 25, 2007 02:30 AM
147903456	NM_001087618.1	Jul 25, 2007 02:48 AM
147903430	NM_001090257.1	Jul 25, 2007 02:51 AM
147903412	NM_001090361.1	Jul 25, 2007 02:41 AM
147903398	NM_001088648.1	Jul 25, 2007 02:48 AM
147903362	NM_001090956.1	Jul 25, 2007 02:31 AM
147903358	NM_001090312.1	Jul 25, 2007 02:48 AM
147903338	NM_001088482.1	Jul 25, 2007 02:30 AM
147903326	NM_001090802.1	Jul 25, 2007 02:49 AM
147903318	NM_001088671.1	Jul 25, 2007 02:30 AM
147903281	NM_001088814.1	Jul 25, 2007 02:50 AM
147903255	NM_001087759.1	Jul 25, 2007 02:35 AM
147903251	NM_001088616.1	Jul 25, 2007 02:41 AM
147903243	NM_001090237.1	Jul 25, 2007 02:50 AM
147903234	NM_001090480.1	Jul 25, 2007 02:50 AM
147903232	NM_001088751.1	Jul 25, 2007 02:36 AM
147903218	NM_001090982.1	Jul 25, 2007 02:33 AM
147903212	NM_001091018.1	Jul 25, 2007 02:45 AM
147903206	NM_001088683.1	Jul 25, 2007 02:50 AM
147903204	NM_001088860.1	Jul 25, 2007 02:39 AM
147903172	NM_001090009.1	Jul 25, 2007 02:44 AM
147903138	NM_001088103.1	Jul 25, 2007 02:50 AM
147903124	NM_001087608.1	Jul 25, 2007 02:42 AM
147903109	NM_001088872.1	Jul 25, 2007 02:43 AM
147903097	NM_001090144.1	Jul 25, 2007 02:31 AM
147903089	NM_001087832.1	Jul 25, 2007 02:45 AM
147903085	NM_001089161.1	Jul 25, 2007 02:45 AM
147903037	NM_001090416.1	Jul 25, 2007 02:32 AM
147903025	NM_001090688.1	Jul 25, 2007 02:49 AM
147903023	NM_001088085.1	Jul 25, 2007 02:49 AM
147903011	NM_001087541.1	Jul 25, 2007 02:40 AM
147902983	NM_001087644.1	Jul 25, 2007 02:50 AM
147902945	NM_001089189.1	Jul 25, 2007 02:46 AM
147902911	NM_001088450.1	Jul 25, 2007 02:50 AM
147902885	NM_001090111.1	Jul 25, 2007 02:50 AM
147902843	NM_001087733.1	Jul 25, 2007 02:46 AM
147902833	NM_001087820.1	Jul 25, 2007 02:43 AM
147902823	NM_001088608.1	Jul 25, 2007 02:45 AM
147902815	NM_001087725.1	Jul 25, 2007 02:46 AM
147902775	NM_001088240.1	Jul 25, 2007 02:48 AM
147902769	NM_001089896.1	Jul 25, 2007 02:47 AM
147902761	NM_001089825.1	Jul 25, 2007 02:36 AM
147902729	NM_001090732.1	Jul 25, 2007 02:45 AM
147902713	NM_001089716.1	Jul 25, 2007 02:46 AM
147902699	NM_001088005.1	Jul 25, 2007 02:33 AM
147902693	NM_001090402.1	Jul 25, 2007 02:51 AM
147902658	NM_001090448.1	Jul 25, 2007 02:51 AM
147902602	NM_001088025.1	Jul 25, 2007 02:31 AM
147902598	NM_001089910.1	Jul 25, 2007 02:51 AM
147902596	NM_001089004.1	Jul 25, 2007 02:43 AM
147902580	NM_001088573.1	Jul 25, 2007 02:50 AM
147902566	NM_001089782.1	Jul 25, 2007 02:51 AM
147902556	NM_001087555.1	Jul 25, 2007 02:35 AM
147902554	NM_001090970.1	Jul 25, 2007 02:50 AM
147902516	NM_001088465.1	Jul 25, 2007 02:48 AM
147902496	NM_001089654.1	Jul 25, 2007 02:50 AM
147902482	NM_001089817.1	Jul 25, 2007 02:49 AM
147902466	NM_001089770.1	Jul 25, 2007 02:46 AM
147902462	NM_001088392.1	Jul 25, 2007 02:51 AM
147902458	NM_001090555.1	Jul 25, 2007 02:44 AM
147902415	NM_001090846.1	Jul 25, 2007 02:50 AM
147902407	NM_001090648.1	Jul 25, 2007 02:37 AM
147902385	NM_001088854.1	Jul 25, 2007 02:34 AM
147902377	NM_001088610.1	Jul 25, 2007 02:38 AM
147902352	NM_001088918.1	Jul 25, 2007 02:49 AM
147902346	NM_001088677.1	Jul 25, 2007 02:38 AM
147902332	NM_001088300.1	Jul 25, 2007 02:35 AM
147902307	NM_001090168.1	Jul 25, 2007 02:43 AM
147902295	NM_001088634.1	Jul 25, 2007 02:46 AM
147902291	NM_001088622.1	Jul 25, 2007 02:46 AM
147902229	NM_001089642.1	Jul 25, 2007 02:50 AM
147902213	NM_001088039.1	Jul 25, 2007 02:45 AM
147902175	NM_001087860.1	Jul 25, 2007 02:47 AM
147902173	NM_001089628.1	Jul 25, 2007 02:48 AM
147902133	NM_001090776.1	Jul 25, 2007 02:47 AM
147902110	NM_001087806.1	Jul 25, 2007 02:44 AM
147902090	NM_001090390.1	Jul 25, 2007 02:43 AM
147902046	NM_001088292.1	Jul 25, 2007 02:33 AM
147902025	NM_001089201.1	Jul 25, 2007 02:46 AM
147902023	NM_001088906.1	Jul 25, 2007 02:51 AM
147902021	NM_001090570.1	Jul 25, 2007 02:50 AM
147902019	NM_001089668.1	Jul 25, 2007 02:48 AM
147902003	NM_001090011.1	Jul 25, 2007 02:48 AM
147901991	NM_001090816.1	Jul 25, 2007 02:50 AM
147901937	NM_001087886.1	Jul 25, 2007 02:49 AM
147901931	NM_001089936.1	Jul 25, 2007 02:47 AM
147901919	NM_001090822.1	Jul 25, 2007 02:38 AM
147901911	NM_001089691.1	Jul 25, 2007 02:49 AM
147901905	NM_001090543.1	Jul 25, 2007 02:44 AM
147901893	NM_001087745.1	Jul 25, 2007 02:33 AM
147901889	NM_001090396.1	Jul 25, 2007 02:47 AM
147901846	NM_001089126.1	Jul 25, 2007 02:47 AM
147901836	NM_001089674.1	Jul 25, 2007 02:45 AM
147901832	NM_001088782.1	Jul 25, 2007 02:51 AM
147901828	NM_001088874.1	Jul 25, 2007 02:35 AM
147901803	NM_001088892.1	Jul 25, 2007 02:49 AM
147901752	NM_001090996.1	Jul 25, 2007 02:52 AM
147901714	NM_001087872.1	Jul 25, 2007 02:46 AM
147901688	NM_001090130.1	Jul 25, 2007 02:40 AM
147901639	NM_001088716.1	Jul 25, 2007 02:40 AM
147901611	NM_001090861.1	Jul 25, 2007 02:46 AM
147901609	NM_001088246.1	Jul 25, 2007 02:46 AM
147901607	NM_001089902.1	Jul 25, 2007 02:46 AM
147901601	NM_001090228.1	Jul 25, 2007 02:33 AM
147901581	NM_001090292.1	Jul 25, 2007 02:47 AM
147901577	NM_001090306.1	Jul 25, 2007 02:50 AM
147901569	NM_001088191.1	Jul 25, 2007 02:52 AM
147901563	NM_001088185.1	Jul 25, 2007 02:49 AM
147901559	NM_001089840.1	Jul 25, 2007 02:50 AM
147901525	NM_001090968.1	Jul 25, 2007 02:44 AM
147901517	NM_001087655.1	Jul 25, 2007 02:40 AM
147901513	NM_001089788.1	Jul 25, 2007 02:46 AM
147901503	NM_001088280.1	Jul 25, 2007 02:47 AM
147901491	NM_001087699.1	Jul 25, 2007 02:46 AM
147901421	NM_001088017.1	Jul 25, 2007 02:44 AM
147901417	NM_001088117.1	Jul 25, 2007 02:43 AM
147901404	NM_001090796.1	Jul 25, 2007 02:33 AM
147901340	NM_001089274.1	Jul 25, 2007 02:39 AM
147901332	NM_001088418.1	Jul 25, 2007 02:43 AM
147901248	NM_001088095.1	Jul 25, 2007 02:30 AM
147901246	NM_001089736.1	Jul 25, 2007 02:31 AM
147901240	NM_001090142.1	Jul 25, 2007 02:35 AM
147901236	NM_001087553.1	Jul 25, 2007 02:43 AM
147901226	NM_001090335.1	Jul 25, 2007 02:35 AM
147901218	NM_001088691.1	Jul 25, 2007 02:37 AM
147901214	NM_001089977.1	Jul 25, 2007 02:49 AM
147901206	NM_001090280.1	Jul 25, 2007 02:41 AM
147901188	NM_001089756.1	Jul 25, 2007 02:50 AM
147901178	NM_001087753.1	Jul 25, 2007 02:44 AM
147901166	NM_001090272.1	Jul 25, 2007 02:45 AM
147901158	NM_001087614.1	Jul 25, 2007 02:39 AM
147901140	NM_001090790.1	Jul 25, 2007 02:39 AM
147901138	NM_001088848.1	Jul 25, 2007 02:34 AM
147901134	NM_001087647.1	Jul 25, 2007 02:48 AM
147901096	NM_001087661.1	Jul 25, 2007 02:36 AM
147901074	NM_001090468.1	Jul 25, 2007 02:51 AM
147901062	NM_001090602.1	Jul 25, 2007 02:32 AM
147900998	NM_001088113.1	Jul 25, 2007 02:50 AM
147900968	NM_001087701.1	Jul 25, 2007 02:44 AM
147900958	NM_001090162.1	Jul 25, 2007 02:50 AM
147900950	NM_001089596.1	Jul 25, 2007 02:51 AM
147900948	NM_001088912.1	Jul 25, 2007 02:35 AM
147900916	NM_001088205.1	Jul 25, 2007 02:38 AM
147900910	NM_001090064.1	Jul 25, 2007 02:48 AM
147900908	NM_001090099.1	Jul 25, 2007 02:48 AM
147900894	NM_001088398.1	Jul 25, 2007 02:52 AM
147900884	NM_001088796.1	Jul 25, 2007 02:48 AM
147900880	NM_001090274.1	Jul 25, 2007 02:37 AM
147900876	NM_001088165.1	Jul 25, 2007 02:51 AM
147900858	NM_001090062.1	Jul 25, 2007 02:45 AM
147900838	NM_001087719.1	Jul 25, 2007 02:31 AM
147900807	NM_001087840.1	Jul 25, 2007 02:35 AM
147900801	NM_001090901.1	Jul 25, 2007 02:49 AM
147900787	NM_001089149.1	Jul 25, 2007 02:43 AM
147900779	NM_001088898.1	Jul 25, 2007 02:43 AM
147900761	NM_001088579.1	Jul 25, 2007 02:52 AM
147900759	NM_001089297.1	Jul 25, 2007 02:38 AM
147900737	NM_001088900.1	Jul 25, 2007 02:39 AM
147900727	NM_001087814.1	Jul 25, 2007 02:44 AM
147900693	NM_001090770.1	Jul 25, 2007 02:42 AM
147900679	NM_001090023.1	Jul 25, 2007 02:33 AM
147900659	NM_001089016.1	Jul 25, 2007 02:47 AM
147900625	NM_001090895.1	Jul 25, 2007 02:47 AM
147900555	NM_001087950.1	Jul 25, 2007 02:50 AM
147900535	NM_001090088.1	Jul 25, 2007 02:46 AM
147900527	NM_001089634.1	Jul 25, 2007 02:51 AM
147900491	NM_001090712.1	Jul 25, 2007 02:46 AM
147900483	NM_001087768.1	Jul 25, 2007 02:36 AM
147900461	NM_001090355.1	Jul 25, 2007 02:37 AM
147900437	NM_001090136.1	Jul 25, 2007 02:50 AM
147900435	NM_001089120.1	Jul 25, 2007 02:43 AM
147900429	NM_001090832.1	Jul 25, 2007 02:51 AM
147900399	NM_001088412.1	Jul 25, 2007 02:52 AM
147900397	NM_001089195.1	Jul 25, 2007 02:40 AM
147900382	NM_001090170.1	Jul 25, 2007 02:39 AM
147900375	NM_001090243.1	Jul 25, 2007 02:52 AM
147900322	NM_001087624.1	Jul 25, 2007 02:51 AM
147900312	NM_001089002.1	Jul 25, 2007 02:45 AM
147900294	NM_001089971.1	Jul 25, 2007 02:36 AM
147900282	NM_001090367.1	Jul 25, 2007 02:36 AM
147900274	NM_001089056.1	Jul 25, 2007 02:48 AM
147900272	NM_001090706.1	Jul 25, 2007 02:49 AM
147900270	NM_001090214.1	Jul 25, 2007 02:49 AM
147900264	NM_001090907.1	Jul 25, 2007 02:32 AM
147900248	NM_001090927.1	Jul 25, 2007 02:50 AM
147900230	NM_001089959.1	Jul 25, 2007 02:37 AM
147900216	NM_001087693.1	Jul 25, 2007 02:37 AM
147900208	NM_001087547.1	Jul 25, 2007 02:50 AM
147900206	NM_001089802.1	Jul 25, 2007 02:41 AM
147900162	NM_001089942.1	Jul 25, 2007 02:49 AM
147900160	NM_001089648.1	Jul 25, 2007 02:48 AM
147900156	NM_001090840.1	Jul 25, 2007 02:47 AM
147900154	NM_001088703.1	Jul 25, 2007 02:36 AM
147900142	NM_001090428.1	Jul 25, 2007 02:51 AM
147900104	NM_001090658.1	Jul 25, 2007 02:45 AM
147900060	NM_001088886.1	Jul 25, 2007 02:37 AM
147900030	NM_001087565.1	Jul 25, 2007 02:37 AM
147900028	NM_001089660.1	Jul 25, 2007 02:52 AM
147900010	NM_001088636.1	Jul 25, 2007 02:38 AM
147900008	NM_001090300.1	Jul 25, 2007 02:31 AM
147899985	NM_001090744.1	Jul 25, 2007 02:51 AM
147899939	NM_001090718.1	Jul 25, 2007 02:49 AM
147899921	NM_001090808.1	Jul 25, 2007 02:52 AM
147899879	NM_001088984.1	Jul 25, 2007 02:36 AM
147899873	NM_001087982.1	Jul 25, 2007 02:46 AM
147899869	NM_001090422.1	Jul 25, 2007 02:49 AM
147899863	NM_001087970.1	Jul 25, 2007 02:38 AM
147899859	NM_001090642.1	Jul 25, 2007 02:42 AM
147899855	NM_001089207.1	Jul 25, 2007 02:48 AM
147899853	NM_001090855.1	Jul 25, 2007 02:48 AM
147899833	NM_001088924.1	Jul 25, 2007 02:44 AM
147899806	NM_001089857.1	Jul 25, 2007 02:36 AM
147899777	NM_001089922.1	Jul 25, 2007 02:35 AM
147899765	NM_001087535.1	Jul 25, 2007 02:33 AM
147899729	NM_001088599.1	Jul 25, 2007 02:51 AM
147899713	NM_001090124.1	Jul 25, 2007 02:43 AM
147899685	NM_001090488.1	Jul 25, 2007 02:45 AM
147899663	NM_001088508.1	Jul 25, 2007 02:38 AM
147899654	NM_001087892.1	Jul 25, 2007 02:42 AM
147899644	NM_001088346.1	Jul 25, 2007 02:51 AM
147899634	NM_001090506.1	Jul 25, 2007 02:50 AM
147899630	NM_001088734.1	Jul 25, 2007 02:49 AM
147899588	NM_001088372.1	Jul 25, 2007 02:51 AM
147899574	NM_001090050.1	Jul 25, 2007 02:44 AM
147899572	NM_001090962.1	Jul 25, 2007 02:49 AM
147899566	NM_001090150.1	Jul 25, 2007 02:37 AM
147899556	NM_001088828.1	Jul 25, 2007 02:47 AM
147899544	NM_001090730.1	Jul 25, 2007 02:47 AM
147899540	NM_001088173.1	Jul 25, 2007 02:35 AM
147899524	NM_001089997.1	Jul 25, 2007 02:30 AM
147899522	NM_001089890.1	Jul 25, 2007 02:46 AM
147899490	NM_001088538.1	Jul 25, 2007 02:47 AM
147899488	NM_001090782.1	Jul 25, 2007 02:51 AM
147899480	NM_001090950.1	Jul 25, 2007 02:50 AM
147899476	NM_001090251.1	Jul 25, 2007 02:49 AM
147899451	NM_001090933.1	Jul 25, 2007 02:44 AM
147899443	NM_001088318.1	Jul 25, 2007 02:45 AM
147899425	NM_001088663.1	Jul 25, 2007 02:34 AM
147899415	NM_001090327.1	Jul 25, 2007 02:34 AM
147899407	NM_001090182.1	Jul 25, 2007 02:35 AM
147899393	NM_001087834.1	Jul 25, 2007 02:37 AM
147899363	NM_001088567.1	Jul 25, 2007 02:44 AM
147899361	NM_001088880.1	Jul 25, 2007 02:37 AM
147899339	NM_001089114.1	Jul 25, 2007 02:40 AM
147899337	NM_001090764.1	Jul 25, 2007 02:41 AM
147899287	NM_001088950.1	Jul 25, 2007 02:44 AM
147899283	NM_001090614.1	Jul 25, 2007 02:44 AM
147899269	NM_001090875.1	Jul 25, 2007 02:47 AM
147899255	NM_001088728.1	Jul 25, 2007 02:30 AM
147899216	NM_001087936.1	Jul 25, 2007 02:46 AM
147899188	NM_001089869.1	Jul 25, 2007 02:48 AM
147899178	NM_001090222.1	Jul 25, 2007 02:42 AM
147899152	NM_001090994.1	Jul 25, 2007 02:44 AM
147899148	NM_001089265.1	Jul 25, 2007 02:46 AM
147899030	NM_001087588.1	Jul 25, 2007 02:51 AM
147899008	NM_001088964.1	Jul 25, 2007 02:44 AM
147898980	NM_001089724.1	Jul 25, 2007 02:48 AM
147898974	NM_001090939.1	Jul 25, 2007 02:47 AM
147898954	NM_001089965.1	Jul 25, 2007 02:39 AM
147898952	NM_001090194.1	Jul 25, 2007 02:44 AM
147898914	NM_001087924.1	Jul 25, 2007 02:49 AM
147898910	NM_001088642.1	Jul 25, 2007 02:50 AM
147898874	NM_001090634.1	Jul 25, 2007 02:48 AM
147898862	NM_001089863.1	Jul 25, 2007 02:45 AM
147898856	NM_001088157.1	Jul 25, 2007 02:41 AM
147898838	NM_001090616.1	Jul 25, 2007 02:48 AM
147898806	NM_001087561.1	Jul 25, 2007 02:38 AM
147898802	NM_001088366.1	Jul 25, 2007 02:48 AM
147898748	NM_001087689.1	Jul 25, 2007 02:46 AM
147898740	NM_001088628.1	Jul 25, 2007 02:47 AM
147898724	NM_001088970.1	Jul 25, 2007 02:48 AM
147898710	NM_001088324.1	Jul 25, 2007 02:47 AM
147898652	NM_001089851.1	Jul 25, 2007 02:39 AM
147898635	NM_001087904.1	Jul 25, 2007 02:36 AM
147898617	NM_001087582.1	Jul 25, 2007 02:37 AM
147898601	NM_001088776.1	Jul 25, 2007 02:50 AM
147898591	NM_001089622.1	Jul 25, 2007 02:39 AM
147898585	NM_001090070.1	Jul 25, 2007 02:38 AM
147898583	NM_001089253.1	Jul 25, 2007 02:49 AM
147898569	NM_001089928.1	Jul 25, 2007 02:46 AM
147898559	NM_001088286.1	Jul 25, 2007 02:49 AM
147898553	NM_001087918.1	Jul 25, 2007 02:47 AM
147898545	NM_001089916.1	Jul 25, 2007 02:47 AM
147898541	NM_001088272.1	Jul 25, 2007 02:46 AM
147898539	NM_001088143.1	Jul 25, 2007 02:46 AM
147898533	NM_001089710.1	Jul 25, 2007 02:37 AM
147898509	NM_001087600.1	Jul 25, 2007 02:47 AM
147898496	NM_001090913.1	Jul 25, 2007 02:47 AM
147898492	NM_001089759.1	Jul 25, 2007 02:38 AM
147898474	NM_001089062.1	Jul 25, 2007 02:46 AM
147898464	NM_001089985.1	Jul 25, 2007 02:40 AM
147898446	NM_001089703.1	Jul 25, 2007 02:47 AM
147898428	NM_001090869.1	Jul 25, 2007 02:51 AM
147898412	NM_001087673.1	Jul 25, 2007 02:48 AM
147898406	NM_001087632.1	Jul 25, 2007 02:43 AM
147898388	NM_001089689.1	Jul 25, 2007 02:45 AM
148228176	NM_001090466.1	Jul 25, 2007 02:40 AM
148227859	NM_001088215.1	Jul 25, 2007 02:37 AM
147905316	NM_001089241.1	Jul 25, 2007 02:36 AM
147902001	NM_001088260.1	Jul 25, 2007 02:47 AM
147898434	NM_001088822.1	Jul 25, 2007 02:45 AM
147903758	NM_001087944.1	Jul 25, 2007 02:43 AM
148227395	NM_001088302.1	Jul 25, 2007 02:44 AM
148227821	NM_001088852.1	Jul 25, 2007 02:40 AM
156119512	NM_001101784.1	Aug 21, 2007 02:34 AM
156119496	NM_001101776.1	Aug 21, 2007 02:34 AM
156119456	NM_001101754.1	Aug 21, 2007 02:34 AM
148238097	NM_001090784.1	Jul 25, 2007 02:43 AM
148234784	NM_001088624.1	Jul 25, 2007 02:45 AM
148234418	NM_001088314.1	Jul 25, 2007 02:30 AM
148232625	NM_001090897.1	Jul 25, 2007 02:44 AM
148232249	NM_001087998.1	Jul 25, 2007 02:41 AM
148230940	NM_001090276.1	Jul 25, 2007 02:49 AM
148225135	NM_001090577.1	Jul 25, 2007 02:48 AM
148224936	NM_001089989.1	Jul 25, 2007 02:39 AM
148224226	NM_001087628.1	Jul 25, 2007 02:40 AM
148223066	NM_001087980.1	Jul 25, 2007 02:48 AM
147905463	NM_001090596.1	Jul 25, 2007 02:46 AM
147904982	NM_001088593.1	Jul 25, 2007 02:34 AM
147904045	NM_001087846.1	Jul 25, 2007 02:44 AM
147903309	NM_001090698.1	Jul 25, 2007 02:30 AM
147903249	NM_001087912.1	Jul 25, 2007 02:38 AM
147902383	NM_001090520.1	Jul 25, 2007 02:33 AM
147901941	NM_001088406.1	Jul 25, 2007 02:48 AM
147901368	NM_001090668.1	Jul 25, 2007 02:47 AM
147900954	NM_001090036.1	Jul 25, 2007 02:45 AM
147907386	NM_001088846.1	Jul 25, 2007 02:33 AM
148232765	NM_001087894.1	Jul 25, 2007 02:35 AM
148223250	NM_001088296.1	Jul 25, 2007 02:46 AM
148223006	NM_001087908.1	Jul 25, 2007 02:50 AM
147906890	NM_001089082.1	Jul 25, 2007 02:45 AM
147906181	NM_001087794.1	Jul 25, 2007 02:31 AM
147906054	NM_001088996.1	Jul 25, 2007 02:48 AM
147905769	NM_001090260.1	Jul 25, 2007 02:45 AM
147903574	NM_001089155.1	Jul 25, 2007 02:48 AM
147901380	NM_001088438.1	Jul 25, 2007 02:48 AM
147900286	NM_001089283.1	Jul 25, 2007 02:44 AM
147899062	NM_001088990.1	Jul 25, 2007 02:45 AM
450950	S66373	Jan 28, 1994 12:14 AM
413873	Z27111	Feb 26, 2002 04:28 PM
342160042	AY427939.1	AY427940.1	AY427941.1	AY427942.1	AY427943.1	AY427944.1	AY427945.1	AY427946.1	AY427947.1	Jul 29, 2011 04:10 PM
342156461	M30857.1	M30858.1	Jul 29, 2011 03:49 PM
339511240	M35353.1	M35354.1	M35355.1	M35356.1	M35357.1	M35358.1	Jul 6, 2011 05:12 PM
338819873	AF268049.1	AF268050.1	Jun 29, 2011 03:48 PM
290965713	GQ862151.1	Jun 21, 2010 12:45 PM
1655904	S49580	S49644	Jan 15, 1997 12:12 AM
857677	M61687	Jun 12, 1995 05:39 PM
413875	Z27112	Feb 26, 2002 04:28 PM
28894854	AF484157.1	Oct 15, 2004 12:47 PM
2981640	U44951.1	Oct 11, 2000 03:24 PM
2896106	S69534	Feb 19, 1998 12:49 AM
40806796	L09605.1	Jan 18, 2004 12:09 AM
65218	S41668.1	Jun 16, 2005 01:20 PM
450368	S48062.1	Sep 27, 2004 05:30 PM
65185	S47848.1	Sep 27, 2004 05:30 PM
65061	S47430.1	Aug 11, 2005 09:42 AM
1850763	S80996.1	Jul 30, 2002 01:50 PM
5931775	S35811.1	Aug 11, 2005 09:49 AM
65196	S39863.1	Aug 11, 2005 09:48 AM
65193	S39862.1	Aug 11, 2005 09:48 AM
64638	S38613.1	Jun 10, 2005 12:55 PM
64635	S38607.1	Jun 10, 2005 12:55 PM
64534	J00975.1	Feb 23, 2005 12:18 PM
115521222	AY112655.1	Oct 9, 2006 12:07 AM
38605969	AY164749.1	Dec 2, 2003 11:14 AM
38605960	AY164721.1	Dec 2, 2003 11:14 AM
54149798	AY332232.1	Oct 15, 2004 02:02 PM
65270	S54883.1	Jun 16, 2005 01:19 PM
64581	S38053.1	Jun 9, 2005 02:24 PM
65316	S49675.1	Aug 11, 2005 09:43 AM
65223	S41241.1	Aug 11, 2005 09:48 AM
64551	S52009.1	Aug 11, 2005 09:44 AM
836654	S53908.1	Jun 23, 2005 08:21 AM
64589	S46999.1	Jun 22, 2005 10:55 AM
64971	S40527.1	Jun 9, 2005 08:53 AM
65100	S53741.1	May 26, 2005 03:17 PM
785051	S54541.1	May 10, 2005 02:28 PM
65202	S51325.1	May 3, 2005 02:40 PM
65204	S51323.1	Nov 24, 2004 01:40 PM
65044	J00993.1	Oct 22, 2003 12:59 PM
64866	M13954.1	Mar 10, 2005 08:33 AM
64865	M13956.1	Feb 24, 2005 11:03 AM
64862	M18155.1	Jul 24, 2002 12:05 PM
64573	J00977.1	Mar 15, 2005 09:27 AM
65058	K01754.1	Mar 16, 2005 11:30 AM
64597	K00929.1	Mar 16, 2005 11:50 AM
65053	J00997.1	Mar 15, 2005 09:27 AM
65052	J00998.1	Mar 15, 2005 09:27 AM
65050	J00996.1	Mar 15, 2005 09:27 AM
65034	J01013.1	Mar 15, 2005 09:27 AM
65033	J01014.1	Mar 15, 2005 09:27 AM
65025	M12499.1	Mar 11, 2005 08:28 AM
60391309	D50037.1	D50038.1	D50042.1	Mar 1, 2005 11:39 AM
64492	M21176.1	Jul 25, 2002 01:12 PM
65056	K01369.1	K01370.1	K01371.1	K01372.1	K01373.1	K01535.1	J00999.1	J01001.1	J01002.1	J01003.1	K01376.1	Feb 19, 2004 09:23 AM
65046	J00994.1	Oct 22, 2003 12:59 PM
64797	J00990.1	Jul 24, 2002 01:11 PM
