A0A089GK74:KM043284 KM043283 
R9R809:JX308865 JX308890 
A7XAY9:EF407434 EU362901 
U5Y7A5:JQ061642 JQ061543 JQ061424 JQ061539 JQ061430 JQ061644 JQ061545 JQ061427 JQ061641 
U5Y6A9:JQ061426 JQ061484 
A0A089GIE4:KM043279 KM043278 
U5Y737:JQ061406 JQ061472 JQ061412 JQ061409 JQ061405 JQ061471 JQ061403 JQ061408 JQ061404 JQ061468 JQ061411 
U5Y925:JQ061565 JQ061567 JQ061564 JQ061557 JQ061560 JQ061566 JQ061562 
U5Y8Q9:JQ061670 JQ061450 JQ061671 JQ061668 JQ061451 JQ061458 JQ061672 
R9R818:JX308917 JX308932 JX308935 
U5Y7E4:JQ061806 JQ061804 
U5Y669:JQ061448 JQ061447 JQ061443 JQ061445 
D2E5E2:FJ911735 FJ911734 
U5Y943:JQ062362 JQ062353 
U5Y6R1:JQ061619 JQ061620 JQ061524 JQ061523 JQ061624 JQ061621 JQ061625 JQ061617 JQ061622 JQ061522 JQ061618 JQ061626 JQ061516 JQ061525 JQ061521 JQ061518 
U5Y784:JQ061596 JQ061730 JQ061737 JQ061659 JQ061664 JQ061738 JQ061734 JQ061588 JQ061592 JQ061735 JQ061739 JQ061661 JQ061657 
R9R815:JX308920 JX308854 
R9R706:JX308910 JX308906 
A0A089GK67:KM043276 KM043275 KM043274 KM043277 
U5Y7H1:JQ061826 JQ061824 
U5Y762:JQ061715 JQ061708 JQ061713 JQ061710 JQ061714 JQ061716 JQ061711 JQ061709 JQ061712 
U5Y895:JQ061857 JQ061770 JQ061864 JQ061863 
U5Y9P0:JQ061889 JQ061785 JQ061782 JQ061781 JQ062048 JQ061888 JQ061887 JQ062043 JQ062047 JQ061783 JQ062052 
U5Y7Y4:JQ061364 JQ061926 
U5Y6H5:JQ061441 JQ061551 JQ061725 JQ061439 JQ061547 JQ061728 JQ061648 JQ061548 JQ061437 JQ061650 JQ061720 JQ061729 JQ061727 JQ061436 JQ061552 JQ061654 JQ061554 
U5Y7T3:JQ061714 JQ061709 JQ061522 JQ061716 JQ061524 
U5Y7D6:JQ061839 JQ061840 JQ061334 JQ061844 
U5Y6Q7:JQ061619 JQ061624 JQ061621 JQ061625 JQ061622 JQ061618 
U5Y8R6:JQ062277 JQ062276 
A0A089GG90:KM043273 KM043272 
D2E5D2:FJ911724 FJ911725 
R9R6Z8:JX308840 JX308861 JX308876 JX308872 JX308841 JX308885 
U3TH88:AB811559 AB811553 
U5YBA7:JQ062345 JQ062348 
U5Y8Q5:JQ061459 JQ061452 JQ061453 
U5Y8B1:JQ062116 JQ062119 
U5YBF5:JQ062330 JQ062331 JQ062337 JQ062339 
U5Y8Q8:JQ061410 JQ061406 JQ061412 JQ061405 JQ061408 JQ061411 
A0A089GJM2:KM043281 KM043280 
