P26567:M17842 X86563 X60548 
P08440:M16220 X12872 
B4FUS3:HM008660 EU965557 BT040861 
Q6WS85:BT042177 CM000784 AY271659 EU966203 AY328854 
P12340:M17842 M17841 X86563 X60548 
P16037:X52270 X86563 X17318 
P50158:X90652 L13301 
Q84RL7:AF326491 AY243801 
Q84RL6:AY243804 AF326503 AF057183 
Q41807:X80375 X83695 
Q9ZSV1:AF093627 AJ222589 
B6U151:BT055492 EU970966 
P27723:X86563 X60823 
P60138:J04502 X86563 
Q93WI2:AF415134 AF377737 AF415098 AF415048 AF415066 AF415128 AF340200 AF415036 AF415114 AF415045 AF415074 AF415111 AF415024 AF415054 AF415141 AF377741 AF415079 AF415034 AF415130 AF415104 AF377732 AF415109 AF415124 AF415144 AF377723 AF415030 AF415058 AF415137 AF415118 AF415071 AF340207 AF415083 AF377726 AF377738 AF415151 AF415029 AF415102 AF415149 AF415107 AF415037 AF340204 AF415113 AF415055 AF415142 AF377722 AF377733 AF415061 AF415103 AF415080 AF415086 AF415044 AF415123 AF415120 AF415152 AF415145 AF415031 AF415059 AF415092 AF415046 AF415136 AF415110 AF415050 AF415090 AF415117 AF415070 AF415077 AF415052 AF415043 AF415072 AF377730 AF377739 AF415150 AF415116 AF340209 U94494 AF340203 AF415132 AF415096 AF415106 AF415085 AF415064 AF377725 AF340199 AF340202 AF415056 AF415139 AF415032 AF377742 AF415063 AF415081 AF377734 AF340206 AF415146 AF415068 AF377721 AF377729 AF377736 AF415135 AF340201 AF415039 AF415027 AF415147 AF415100 AF415088 AF377740 AF415076 AF415049 AF415126 AF377724 AF415131 AF415042 AF377731 AF415154 AF415122 AF340205 AF415143 AF415138 AF415075 AF415057 AF415033 AF415094 AF377743 AF415119 AF464738 AF340208 AF377728 AF377727 AF415041 AF340210 AF377735 
Q9AQU5:AF326488 AF326487 
Q9FUH9:BT069417 BT069123 AF305892 CM000782 
P17801:X67733 X52384 
Q9FY42:AY005818 AF236080 
Q9AR14:AJ271796 AF326489 
B8A031:BT054923 BT086520 BT061114 
P33488:S66813 L08426 
P21569:X68678 M55021 
P49087:U36436 X92373 
P49086:U37285 L39266 
P26566:X86563 X60548 
P80639:Y07920 AF034943 
P12959:X16618 X15544 
P43401:U10696 Z34469 
P69246:M13379 X84377 M35388 M36658 M13378 
P38562:D14576 X65929 
P38563:X65930 D14578 
P38561:D14577 X65928 
O24618:EU954242 X98498 X99969 
B6SSW8:BT066818 EU955833 
P27324:S69194 S69196 X58080 X86563 X62424 S69195 
P16023:X86563 M31206 X17318 
P49036:L22296 L33244 
P11646:X13159 X86563 
Q09054:U45858 L13432 U45855 X73151 
P16025:X52270 M31208 X86563 X17318 
P16024:X86563 X17318 M31207 
P12863:L00371 D00012 
P27923:M68937 X92422 
Q19KC1:DQ524811 AF326484 
B4G072:AF331855 BT042760 
B4FGS2:BT036310 EU969508 
B6TNK6:BT042369 EU966571 
Q10716:D45402 X82185 
Q8VZY6:AY150644 AY061965 
Q8VZY7:AY150645 AY061964 
Q01526:M96856 S77135 
O24562:AJ005702 Y13733 
Q9XF58:AY243802 AF130975 
Q43250:X81827 X81828 
P04698:V01480 J01246 
Q5GA22:EU963122 AY691949 BT033394 AY772410 BT041512 
Q43257:Y11368 X81831 
P49235:X74217 U25157 
P05022:X05255 X86563 M27557 
O24602:X98496 X99968 X98497 
Q84TC2:EU960746 AF540907 BT040894 
P09561:X07810 X86563 M35831 
Q5GJ60:AY518315 AY647253 
Q6S3I3:AY472082 AY472083 
P46420:U12679 X79515 
Q05327:Z21722 D14457 
Q05326:D14456 Z21721 
P06586:X86563 Y00340 
P06589:Y00329 X86563 
P06588:X86563 Y00141 
P27788:M73831 AB001387 
B4FNS3:EU965751 BT038761 
P69457:J04502 X86563 
P25709:X56521 X86563 
D9HP23:HM008659 EU967997 
Q43260:U93561 U93560 D49475 
P04709:X15711 X57556 X02842 
Q93XP7:AF466203 AF318075 
P06670:X86563 M12704 X17438 
P46620:X86563 U21985 
B6TRH4:BT033973 EU967589 
Q6WLH3:EU962720 BT086212 AY280630 BT037297 
P25706:X56521 X86563 X62370 
P09562:X07810 X86563 M35831 
P93703:X81830 Y11403 
Q8W519:AF439733 AF144079 
P04712:X02382 X02400 
P04711:X14579 X03613 X15642 X14581 X14580 X07168 X15238 
O65001:AF348319 AF047852 
O63066:AF039304 AF039305 
P05348:X06535 Y00322 S42568 D00170 S42508 
P55876:X99517 AJ132240 
Q9T0N8:AF044603 Y18377 
P11155:FJ935764 S46966 M58656 S46965 S46964 J03901 M58655 AF152599 X14927 
Q9FPK7:AF323175 AF056326 
Q9S7B2:AF143447 AF126489 
B6SHG7:EU952182 BT066355 
B4FAP1:EU969891 EU966666 BT054362 BT034179 
B6TGJ8:EU964113 BT043200 
P16166:AF391808 X13500 
P16167:X07937 X13502 
Q41773:X92375 X92374 M95063 
P48183:X86563 AF543684 
O48950:BT068439 AF027808 
Q6I681:AB182641 BT039983 BT064146 EU962707 
P27347:X66077 X58282 
P00835:X86563 J01421 
P15718:M25397 X16080 
P08735:X07156 X15596 
P05494:M16222 Z00026 
P04966:M11203 X58080 X86563 
P30980:X86563 X61188 
Q42376:U05226 D26552 Z29512 
P09387:X62070 X86563 X07864 
P62596:J04502 X86563 
Q1EG72:EU716166 AY647254 
P28516:X59546 X17555 
P29185:L21007 Z11546 Z12114 
P38559:X65926 D14579 
P04907:X04455 X06755 X04375 
Q2N2K4:DQ163023 DQ163024 
P30571:X82186 S57628 
P12365:X54819 J02976 Z54358 
Q9LKX9:AF007793 X98923 AF250050 
Q6WLH4:CM000784 AY280629 EU962838 BT053836 
P11143:X03697 X03658 X03714 
Q9ST48:AF377628 AF413171 AF413178 AF413116 AF413181 AF377637 AF377632 AF413156 DR799058 AF413193 AF413135 AF377626 AF413144 AF413124 AF413175 AF413119 AF413152 AF413141 AF413186 AF413198 AF413131 AF413148 AF377643 AF413112 AF413128 AF413167 AF413162 AF413182 AF377638 AF377631 AF413187 AF413155 AF413136 AF413147 AF377623 AF413121 AF413143 AF413166 AF413125 AF413159 AF413199 AF413202 AF413194 AF377629 AF413172 AF413183 AJ242530 AF377630 AF413113 AF413203 AF413151 AF413132 AF413129 AF377644 AF413161 AF413190 AF413140 AF413195 AF413139 AF413176 AF413137 AF377624 AF413146 AF413122 AF377621 AF413165 AF377641 AF413160 AF413201 AF413173 AF413114 AF413158 AF377625 AF413126 AF413133 AF377645 AF377640 AF413191 AF413169 AF413164 AF413154 AF413177 AF413117 AF377634 AF377635 AF413188 AF413168 AF413170 AF413138 AF413115 AF377642 AF413200 AF413196 AF377627 AF413189 AF413179 AF377639 AF413150 AF413157 AF413184 AF413145 AF413123 AF413134 AF413163 AF413192 AF413174 AF413197 AF413142 AF413185 AF413120 AF377633 AF377636 AF413118 AF413180 AF377622 AF413149 AF413127 AF413130 AF413153 
B4FT40:AY328855 BT040278 EU962228 
P19124:X86563 X17438 
P10593:X07987 X54212 
Q02245:X63177 L27815 U05258 
P19656:M57249 J04176 
B4FAF3:BT034091 EU966492 BT035045 
P11647:X13159 X86563 
Q07154:AY197352 L14271 
Q43247:U45856 L13431 
C4IYS8:BT083725 EU961931 
P14918:M36913 X13499 M36914 X13506 M36912 
P00840:M10408 M18339 
Q8RVL1:BT035904 GK000031 AY061806 
P46252:X86553 U29383 
P09315:M31483 M18976 X15408 M31481 
P08530:X86563 X06734 
P0DI67:DR785324 DR785323 
P10290:AF320613 AF320614 X52201 M37153 AY530950 AY237128 
B2LXS7:EU595664 EU955861 BT043360 
Q8H0J6:AF007795 AF007794 AJ279062 
P19444:J04502 X86563 
Q6JB14:BT068231 EU954340 AC207116 AY536122 JQ866908 
Q43255:Y11404 X81829 
Q6JB10:AY536126 AC207116 
P26216:X65845 X57743 X65844 X57627 X62384 X62385 X57628 X57575 X66692 
Q6JB12:AC213370 AY536124 
Q6JB13:AY536123 AC207116 
K7VLR4:CM000785 DQ020097 DQ020098 
P00333:X04050 X00580 M32984 X04049 
P19023:M36087 X54233 
P02355:X86563 X01608 
P69449:X52270 X86563 X05254 M27557 
P69523:J04502 X86563 
B6TPF2:CM000785 EU966867 BT034858 
B6TYV8:BT068908 HM008654 EU970173 
P08031:M16460 X53515 
P11601:X13159 X86563 
B6SGC5:BT066232 EU951790 HM008658 
P04704:V01479 V01470 
P29036:X83076 X61391 
P18122:X60135 X12538 
P52855:U62752 U40147 
P08529:X86563 X06734 
P08528:M15176 X86563 X06734 
P04706:X02230 S78780 M16066 X53514 M16218 
Q43298:L21006 Z12115 L21008 
P27898:Z11879 M73028 M73029 
P12950:X15290 X15994 
B4FBQ7:EU970515 BT034545 EU970384 EU976137 
P13689:L08425 X16309 J04550 X56737 S53630 X16308 
P08527:M16559 Y00359 X86563 
B6TZD1:AY738148 BT055692 EU970346 EU965753 
B6SXF8:EU957423 EU960577 DQ273133 EU957392 
O23887:D88451 BT063475 
Q8W119:AF461815 AY280631 BT062712 
Q6JB15:AY536120 AC199699 EU957850 AY536121 
Q32SG3:EF081454 AY940681 
O64964:AY243803 AF037061 
Q8LPU4:U90274 AY093417 AF171927 
Q67EU8:AF079428 AY359681 
P30792:Z33612 M80912 Z33611 
D9HP25:EU955967 HM008661 EU958331 
P04967:M11203 X86563 
B6TB21:EU962186 GU134637 
P00827:X86563 J01421 
B6SJQ0:HM008664 BT061824 EU952965 
P22275:X63176 M60171 
P03938:Z00028 X86563 
P09138:X12728 X53055 
D9HP26:EU969601 HM008662 
A5H8G4:AJ401274 EF178277 
Q41782:X74655 L10635 
B6SU46:EU956261 HM242246 
B6TZ45:HM008653 EU970260 BT040493 
P17788:X62070 X53066 X86563 
Q84ZW8:AF529266 AF105149 
P55241:M81603 S48563 
B4G0F3:EU960548 BT042841 
Q41822:S47361 Z15063 
Q42368:FJ935768 FJ935764 CM000784 FJ935751 FJ935757 FJ935763 FJ935750 FJ935756 FJ935759 FJ935762 FJ935761 FJ935778 FJ935752 FJ935755 S46967 
Q08069:U64436 M95064 
P25461:X86563 X56673 
P62787:M13370 M36659 M13377 
P17703:X52614 X86563 
P17344:X52270 X86563 
Q08062:M95069 AF007581 
Q9FQA3:AF244688 AF244701 BT040471 EU963788 
P12857:X15712 X59086 
B6SR79:BT039703 EU955244 
P58738:AY197353 AF332174 
P69388:J04502 X86563 
Q2NM15:AY928079 AY928078 
B4FF80:BT035768 HM008657 EU968317 EU972766 
P12653:M16902 M16900 X06754 M16901 
P24067:M59449 U58208 
P69671:X05422 X86563 
P11428:M15175 M54936 
P12339:M17841 X86563 
P27787:M73829 M73830 
O24591:U82815 AF026917 
P29390:X83077 X61392 
P00412:V00712 X52865 
O80429:EU328186 AB016810 BT039722 EU974838 
P62726:M35956 X86563 
C0HIA3:AY280632 BT062059 
P05643:X05422 X86563 S67283 S67284 
P05642:X05422 S67282 X86563 S67283 
P05641:X05422 X86563 
P24450:X59526 X58700 
Q1ZYQ8:DQ421828 AY104125 
P19445:J04502 X86563 
P33626:X63180 X63179 
P00874:V00171 X86563 Z11973 
Q4G2J4:AY854019 AY854015 
Q4G2J5:AY854014 AJ251622 AY854018 
Q4G2J6:AY854013 AJ251622 AY854017 
P18123:X12539 M33103 L05934 
Q37069:AJ535776 X86563 
B6TWJ1:EU963431 EU969356 
Q4G2J3:AY854020 AY854016 
P25459:X86563 X56673 
B6TTW1:BT063810 BT084987 EU968426 
P13436:U13701 M17225 
Q05566:X86563 X64099 
P42390:AY254104 X76713 AY254103 
Q940E8:BT042749 CM000780 AY055124 
P24993:X05422 X86563 
P19044:X86563 X17438 
B6U300:EU971615 FL249491 
P94044:AB001385 AB001386 
P31726:M95070 D10622 
