887244244	XM_008656224.1	Jul 15, 2015 12:39 AM
887235643	XM_008673977.1	Jul 15, 2015 12:37 AM
887231338	XM_008652670.1	Jul 15, 2015 12:36 AM
887214099	NM_001176695.1	Jul 15, 2015 12:32 AM
887209837	XM_008669102.1	Jul 15, 2015 12:31 AM
882939024	XM_008673948.1	Jul 14, 2015 12:34 AM
882939004	XM_008682918.1	Jul 14, 2015 12:33 AM
878278719	XM_008649138.1	Jul 11, 2015 12:32 AM
874507463	XR_559798.1	Jul 10, 2015 12:50 AM
874507461	NM_001111817.1	XM_008651766.1	Jul 10, 2015 12:49 AM
874507439	XM_008649131.1	Jul 10, 2015 12:49 AM
874507409	XM_008682155.1	Jul 10, 2015 12:47 AM
874507407	XM_008649127.1	Jul 10, 2015 12:47 AM
874507298	XM_008664213.1	Jul 10, 2015 12:40 AM
803378390	NM_001112000.1	Jul 10, 2015 12:48 AM
803378390	XM_008670540.1	Apr 4, 2015 12:35 AM
840086918	XM_008660236.1	Jun 20, 2015 12:34 AM
840088347	XM_008649931.1	Jun 20, 2015 12:35 AM
840087001	XM_008676324.1	Jun 20, 2015 12:34 AM
840085939	XM_008647527.1	Jun 20, 2015 12:33 AM
840085704	XM_008680565.1	Jun 20, 2015 12:32 AM
840085629	XM_008680043.1	Jun 20, 2015 12:32 AM
840085596	XM_008654637.1	Jun 20, 2015 12:32 AM
840085157	XM_008666437.1	Jun 20, 2015 12:32 AM
840084985	XM_008670821.1	Jun 20, 2015 12:32 AM
840084402	XM_008649923.1	Jun 20, 2015 12:32 AM
840083456	XM_008662243.1	Jun 20, 2015 12:31 AM
840083240	XM_008665328.1	Jun 20, 2015 12:31 AM
840083091	XM_008656125.1	Jun 20, 2015 12:31 AM
836942329	XM_008667442.1	Jun 19, 2015 12:37 AM
836941815	XM_008681105.1	Jun 19, 2015 12:36 AM
836940635	XM_008646390.1	Jun 19, 2015 12:36 AM
836940368	XM_008670983.1	Jun 19, 2015 12:35 AM
836939928	XM_008666410.1	Jun 19, 2015 12:35 AM
836939455	XM_008677368.1	Jun 19, 2015 12:34 AM
836939276	XM_008676889.1	Jun 19, 2015 12:34 AM
836938781	XM_008661005.1	Jun 19, 2015 12:34 AM
836938381	XM_008648196.1	Jun 19, 2015 12:33 AM
836937724	XM_008672743.1	Jun 19, 2015 12:33 AM
836937300	XM_008648008.1	Jun 19, 2015 12:32 AM
836937033	XM_008658107.1	Jun 19, 2015 12:32 AM
836936694	XR_561570.1	Jun 19, 2015 12:32 AM
836936579	XM_008657852.1	Jun 19, 2015 12:32 AM
836936222	XM_008664327.1	Jun 19, 2015 12:31 AM
836935459	XM_008671581.1	Jun 19, 2015 12:31 AM
226507469	NM_001111525.1	Jun 20, 2015 12:32 AM
226492049	NM_001111385.1	Jun 20, 2015 12:34 AM
836469878	XM_008657260.1	Jun 18, 2015 12:33 AM
836469849	XM_008665139.1	Jun 18, 2015 12:33 AM
836469638	XM_008656496.1	Jun 18, 2015 12:33 AM
836469594	XM_008672740.1	Jun 18, 2015 12:33 AM
836469572	XM_008658591.1	Jun 18, 2015 12:33 AM
836469514	XM_008672464.1	Jun 18, 2015 12:33 AM
836469488	XM_008658402.1	Jun 18, 2015 12:33 AM
836469387	XM_008646358.1	Jun 18, 2015 12:33 AM
836469137	XM_008647672.1	Jun 18, 2015 12:33 AM
836469120	XM_008659272.1	Jun 18, 2015 12:33 AM
836468966	XM_008681618.1	Jun 18, 2015 12:32 AM
836468794	XM_008664613.1	Jun 18, 2015 12:32 AM
836468600	XM_008654277.1	Jun 18, 2015 12:32 AM
836468554	XM_008662302.1	Jun 18, 2015 12:32 AM
836468514	XM_008666207.1	Jun 18, 2015 12:32 AM
836468468	XM_008650969.1	Jun 18, 2015 12:32 AM
836468436	XM_008680426.1	Jun 18, 2015 12:32 AM
836468280	XM_008664430.1	Jun 18, 2015 12:32 AM
836468103	XM_008651709.1	Jun 18, 2015 12:32 AM
836467718	XM_008655033.1	Jun 18, 2015 12:31 AM
836467660	XM_008676396.1	Jun 18, 2015 12:31 AM
836467273	XM_008672323.1	Jun 18, 2015 12:31 AM
836467134	XM_008667214.1	Jun 18, 2015 12:31 AM
832626561	XM_008655998.1	Jun 16, 2015 12:31 AM
832626323	XM_008682715.1	Jun 16, 2015 12:31 AM
832626246	XM_008649058.1	Jun 16, 2015 12:31 AM
831360249	XM_008668767.1	Jun 13, 2015 12:32 AM
831360221	XM_008652543.1	Jun 13, 2015 12:31 AM
829569678	XM_008647728.1	Jun 10, 2015 12:30 AM
827834141	XM_008664113.1	Jun 6, 2015 12:33 AM
827833774	XM_008679584.1	Jun 6, 2015 12:32 AM
821324834	XM_008650092.1	May 15, 2015 12:32 AM
816197666	XM_008673812.1	Apr 30, 2015 07:13 AM
803378388	XM_008672525.1	Apr 4, 2015 12:35 AM
683523993	XM_008646425.1	Sep 11, 2014 12:49 AM
683523977	XM_008652526.1	Sep 11, 2014 12:40 AM
675269474	XM_008680114.1	Aug 28, 2014 12:31 AM
674274938	XM_008660792.1	Aug 22, 2014 12:31 AM
673921830	XM_008666324.1	Aug 21, 2014 12:36 AM
673921818	XM_008665500.1	Aug 21, 2014 12:36 AM
673921814	XM_008658861.1	Aug 21, 2014 12:36 AM
673921769	XM_008660809.1	Aug 21, 2014 12:35 AM
673921747	XM_008664512.1	Aug 21, 2014 12:35 AM
673921729	XM_008646928.1	Aug 21, 2014 12:35 AM
673921705	XM_008646937.1	Aug 21, 2014 12:34 AM
673921697	XM_008666790.1	Aug 21, 2014 12:34 AM
673921687	XM_008681722.1	Aug 21, 2014 12:34 AM
673921681	XM_008648089.1	Aug 21, 2014 12:34 AM
673921663	XM_008658555.1	Aug 21, 2014 12:34 AM
673921641	XM_008666793.1	Aug 21, 2014 12:34 AM
673921635	XM_008680986.1	Aug 21, 2014 12:33 AM
673921624	XM_008680519.1	Aug 21, 2014 12:33 AM
673921622	XM_008658748.1	Aug 21, 2014 12:33 AM
673921570	XM_008665176.1	Aug 21, 2014 12:32 AM
673921562	XM_008677140.1	Aug 21, 2014 12:32 AM
673921552	XM_008670456.1	Aug 21, 2014 12:32 AM
673921508	XM_008666344.1	Aug 21, 2014 12:31 AM
673921482	XM_008646969.1	Aug 21, 2014 12:31 AM
673921450	XM_008665034.1	Aug 21, 2014 12:31 AM
239052650	XM_008669317.1	Aug 17, 2014 12:33 AM
822885225	XM_008653656.1	May 22, 2015 12:33 AM
822885189	XM_008653646.1	May 22, 2015 12:32 AM
822606567	XM_008675214.1	May 21, 2015 12:52 AM
822606563	XM_008653642.1	May 21, 2015 12:51 AM
822606541	NM_001254816.1	May 21, 2015 12:43 AM
822606523	XM_008660800.1	May 21, 2015 12:39 AM
817471643	XM_008652717.1	May 5, 2015 10:47 AM
816197643	XM_008650115.1	Apr 30, 2015 07:05 AM
816197611	XM_008650049.1	Apr 30, 2015 01:08 AM
821595498	NM_001254868.1	May 17, 2015 12:33 AM
821595376	XM_008664092.1	May 16, 2015 12:33 AM
821595282	NM_001254827.1	May 16, 2015 12:32 AM
226532661	NM_001111828.1	May 16, 2015 12:31 AM
821325084	XM_008657198.1	May 15, 2015 12:36 AM
821325024	XM_008646364.1	May 15, 2015 12:35 AM
821325004	XM_008657204.1	May 15, 2015 12:35 AM
821324996	XM_008658881.1	May 15, 2015 12:34 AM
821324939	XM_008650068.1	May 15, 2015 12:34 AM
821324818	XM_008675318.1	May 15, 2015 12:32 AM
821324742	XM_008650278.1	May 15, 2015 12:31 AM
821171235	XM_008664951.1	May 14, 2015 08:12 AM
821161542	XM_008680926.1	May 14, 2015 07:58 AM
821161536	XM_008660789.1	May 14, 2015 07:55 AM
817472084	NM_001148237.1	May 12, 2015 12:33 AM
817472084	XM_008652887.1	May 5, 2015 10:47 AM
819231769	XM_008657263.1	May 8, 2015 12:32 AM
819231759	XM_008666815.1	May 8, 2015 12:32 AM
819231757	XM_008666450.1	May 8, 2015 12:32 AM
819231749	XM_008667115.1	May 8, 2015 12:32 AM
819231747	XM_008680661.1	May 8, 2015 12:32 AM
819231743	XM_008662637.1	May 8, 2015 12:32 AM
819231737	XM_008666451.1	May 8, 2015 12:32 AM
819231735	XM_008667357.1	May 8, 2015 12:32 AM
819231732	XM_008666686.1	May 8, 2015 12:32 AM
819231725	XM_008653930.1	May 8, 2015 12:32 AM
819231721	XM_008651589.1	May 8, 2015 12:31 AM
819231718	XM_008665771.1	May 8, 2015 12:31 AM
819231716	XM_008681092.1	May 8, 2015 12:31 AM
819231714	XM_008658679.1	May 8, 2015 12:31 AM
819231710	XM_008667151.1	May 8, 2015 12:31 AM
819231706	XM_008661154.1	May 8, 2015 12:31 AM
819231704	XM_008665097.1	May 8, 2015 12:31 AM
819231688	XM_008657309.1	May 8, 2015 12:31 AM
819231684	XM_008665074.1	May 8, 2015 12:31 AM
819231678	XM_008665098.1	May 8, 2015 12:30 AM
818213462	XM_008667329.1	May 7, 2015 12:45 AM
818213454	XM_008681735.1	May 7, 2015 12:45 AM
818213440	XM_008654644.1	May 7, 2015 12:44 AM
818213407	XM_008670386.1	May 7, 2015 12:42 AM
818213404	XM_008671570.1	May 7, 2015 12:41 AM
817481114	NM_001143068.1	May 5, 2015 10:55 AM
817481014	NM_001146734.1	May 5, 2015 10:54 AM
817480911	NM_001148070.2	May 5, 2015 10:54 AM
817476650	XM_008663389.1	May 5, 2015 10:51 AM
817473919	XM_008678588.1	May 5, 2015 10:49 AM
817050436	XM_008663217.1	May 4, 2015 09:59 AM
816197660	XM_008668906.1	Apr 30, 2015 07:13 AM
815930002	XM_008668629.1	Apr 29, 2015 12:30 AM
816197668	XM_008682908.1	Apr 30, 2015 07:13 AM
816197664	XM_008673846.1	Apr 30, 2015 07:13 AM
816197662	XM_008673847.1	Apr 30, 2015 07:13 AM
816197607	XM_008650051.1	Apr 30, 2015 01:05 AM
816197577	XM_008668879.1	Apr 30, 2015 12:37 AM
815890930	XM_008646033.1	Apr 28, 2015 03:22 PM
226500921	NM_001111376.1	Apr 23, 2015 12:39 PM
815729248	NM_001163146.1	Apr 27, 2015 10:48 AM
815729244	XM_008678540.1	Apr 27, 2015 10:41 AM
815729235	NM_001112263.1	Apr 27, 2015 10:28 AM
806638724	XM_008664110.1	Apr 9, 2015 12:37 AM
815729233	NM_001111975.1	NM_001112535.1	NM_001150391.1	Apr 27, 2015 10:28 AM
802084038	NM_001279485.1	Apr 3, 2015 12:35 AM
814959157	NM_001157089.1	Apr 24, 2015 10:51 AM
814603684	NM_001112462.2	Apr 23, 2015 12:46 PM
809281413	XM_008662278.1	Apr 22, 2015 01:22 AM
809279655	NM_001159461.1	XM_008652622.1	Apr 22, 2015 01:03 AM
795881081	XM_008649782.1	Mar 31, 2015 12:33 AM
673921500	XM_008647910.1	Aug 21, 2014 12:31 AM
808688299	XM_008661119.1	Apr 21, 2015 12:34 AM
675294836	XM_008658846.1	Aug 29, 2014 12:31 AM
674274940	XM_008676400.1	Aug 22, 2014 12:31 AM
226497479	NM_001111368.1	Mar 13, 2015 12:31 AM
806904732	NM_001144018.1	Apr 11, 2015 12:34 AM
806904728	XM_008670415.1	Apr 11, 2015 12:33 AM
802084002	XM_008664252.1	Apr 3, 2015 12:34 AM
806776517	XM_008646049.1	Apr 10, 2015 12:32 AM
806638823	XM_008664806.1	Apr 9, 2015 12:39 AM
806638761	XM_008653628.1	Apr 9, 2015 12:38 AM
806638749	XM_008679590.1	Apr 9, 2015 12:37 AM
806638747	XM_008675508.1	Apr 9, 2015 12:37 AM
806638718	XM_008657226.1	Apr 9, 2015 12:37 AM
806638716	XM_008653698.1	Apr 9, 2015 12:36 AM
806638714	XM_008670441.1	Apr 9, 2015 12:36 AM
806638694	XM_008680141.1	Apr 9, 2015 12:36 AM
806638652	XM_008668759.1	Apr 9, 2015 12:35 AM
806638648	XM_008679744.1	Apr 9, 2015 12:35 AM
806638644	XM_008667198.1	Apr 9, 2015 12:35 AM
806638610	XM_008658114.1	Apr 9, 2015 12:34 AM
806638602	XM_008651033.1	Apr 9, 2015 12:34 AM
806638588	XM_008661732.1	Apr 9, 2015 12:33 AM
806638586	XM_008660928.1	Apr 9, 2015 12:33 AM
806638576	XM_008650097.1	Apr 9, 2015 12:33 AM
806638568	XM_008665499.1	Apr 9, 2015 12:33 AM
806638533	XM_008673774.1	Apr 9, 2015 12:32 AM
803378394	XM_008665459.1	Apr 4, 2015 12:35 AM
803378392	XM_008681622.1	Apr 4, 2015 12:35 AM
803378383	XM_008680224.1	Apr 4, 2015 12:34 AM
803378381	XM_008661957.1	Apr 4, 2015 12:34 AM
803378379	XM_008667203.1	Apr 4, 2015 12:34 AM
803378377	XM_008646925.1	Apr 4, 2015 12:34 AM
803378375	XM_008652366.1	Apr 4, 2015 12:34 AM
803378370	XM_008646899.1	Apr 4, 2015 12:33 AM
803378368	XM_008671750.1	Apr 4, 2015 12:33 AM
803378366	XM_008662229.1	Apr 4, 2015 12:33 AM
803378362	XM_008671571.1	Apr 4, 2015 12:33 AM
803378360	XM_008675420.1	Apr 4, 2015 12:33 AM
803378358	XM_008655028.1	Apr 4, 2015 12:32 AM
803378356	XM_008676499.1	Apr 4, 2015 12:32 AM
803378348	XM_008670501.1	Apr 4, 2015 12:31 AM
803378346	XM_008671086.1	Apr 4, 2015 12:31 AM
802084006	XM_008664340.1	Apr 3, 2015 12:34 AM
802083990	XM_008654598.1	Apr 3, 2015 12:34 AM
802083967	XM_008667148.1	Apr 3, 2015 12:33 AM
802083963	XM_008651553.1	Apr 3, 2015 12:33 AM
802083959	XM_008653078.1	Apr 3, 2015 12:33 AM
802083954	XM_008664637.1	Apr 3, 2015 12:33 AM
802083948	XM_008665198.1	Apr 3, 2015 12:32 AM
802083943	XM_008672086.1	Apr 3, 2015 12:32 AM
802083941	XM_008654562.1	Apr 3, 2015 12:32 AM
766944231	NM_001279684.1	Mar 10, 2015 12:30 AM
675269479	XM_008657492.1	Aug 28, 2014 12:31 AM
673921620	XM_008667377.1	Aug 21, 2014 12:33 AM
683523982	XM_008681277.1	Sep 11, 2014 12:42 AM
683523973	XM_008672059.1	Sep 11, 2014 12:38 AM
683523980	XM_008650547.1	Sep 11, 2014 12:42 AM
683523975	XM_008652337.1	Sep 11, 2014 12:39 AM
683523971	XM_008648152.1	Sep 11, 2014 12:38 AM
683523960	XM_008646420.1	Sep 11, 2014 12:34 AM
673921733	XM_008664505.1	Aug 21, 2014 12:35 AM
673921675	XM_008650306.1	Aug 21, 2014 12:34 AM
673921669	XM_008657933.1	Aug 21, 2014 12:34 AM
673921510	XM_008657326.1	Aug 21, 2014 12:31 AM
675269472	XM_008646659.1	Aug 28, 2014 12:31 AM
675269463	XM_008655130.1	Aug 28, 2014 12:31 AM
673921496	XM_008650661.1	Aug 21, 2014 12:31 AM
675269476	XM_008646412.1	Aug 28, 2014 12:31 AM
675269469	XM_008651039.1	Aug 28, 2014 12:31 AM
673921828	XM_008654945.1	Aug 21, 2014 12:36 AM
673921826	XM_008670669.1	Aug 21, 2014 12:36 AM
673921824	XM_008672095.1	Aug 21, 2014 12:36 AM
673921816	XM_008657714.1	Aug 21, 2014 12:36 AM
673921810	XM_008651274.1	Aug 21, 2014 12:36 AM
673921802	XM_008658050.1	Aug 21, 2014 12:36 AM
673921794	XM_008666777.1	Aug 21, 2014 12:36 AM
673921789	XM_008681246.1	Aug 21, 2014 12:35 AM
673921777	XM_008666822.1	Aug 21, 2014 12:35 AM
673921767	XM_008675436.1	Aug 21, 2014 12:35 AM
673921763	XM_008665517.1	Aug 21, 2014 12:35 AM
673921753	XM_008655224.1	Aug 21, 2014 12:35 AM
673921741	XM_008681734.1	Aug 21, 2014 12:35 AM
673921735	XM_008667511.1	Aug 21, 2014 12:35 AM
673921715	XM_008650944.1	Aug 21, 2014 12:35 AM
673921699	XM_008651767.1	Aug 21, 2014 12:34 AM
673921695	XM_008666779.1	Aug 21, 2014 12:34 AM
673921689	XM_008672657.1	Aug 21, 2014 12:34 AM
673921685	XM_008664538.1	Aug 21, 2014 12:34 AM
673921673	XM_008666781.1	Aug 21, 2014 12:34 AM
673921671	XM_008666457.1	Aug 21, 2014 12:34 AM
673921667	XM_008662068.1	Aug 21, 2014 12:34 AM
673921657	XM_008665545.1	Aug 21, 2014 12:34 AM
673921626	XM_008671773.1	Aug 21, 2014 12:33 AM
673921612	XM_008647797.1	Aug 21, 2014 12:33 AM
673921604	XM_008647648.1	Aug 21, 2014 12:32 AM
673921586	XM_008658908.1	Aug 21, 2014 12:32 AM
673921584	XM_008658459.1	Aug 21, 2014 12:32 AM
673921582	XM_008667178.1	Aug 21, 2014 12:32 AM
673921572	XM_008655080.1	Aug 21, 2014 12:32 AM
673921564	XM_008654477.1	Aug 21, 2014 12:32 AM
673921558	XM_008677032.1	Aug 21, 2014 12:32 AM
673921554	XM_008672250.1	Aug 21, 2014 12:32 AM
673921544	XM_008676276.1	Aug 21, 2014 12:32 AM
673921528	XM_008650924.1	Aug 21, 2014 12:32 AM
673921518	XM_008670675.1	Aug 21, 2014 12:31 AM
673921478	XM_008664584.1	Aug 21, 2014 12:31 AM
673921466	XM_008662069.1	Aug 21, 2014 12:31 AM
673921464	XM_008671780.1	Aug 21, 2014 12:31 AM
673921462	XM_008658668.1	Aug 21, 2014 12:31 AM
673921460	XM_008671259.1	Aug 21, 2014 12:31 AM
673921454	XM_008679684.1	Aug 21, 2014 12:31 AM
673921448	XM_008680629.1	Aug 21, 2014 12:30 AM
673921598	XM_008662210.1	Aug 21, 2014 12:32 AM
673921534	XM_008650533.1	Aug 21, 2014 12:32 AM
673921812	XM_008672258.1	Aug 21, 2014 12:36 AM
673921808	XM_008671891.1	Aug 21, 2014 12:36 AM
673921806	XM_008680550.1	Aug 21, 2014 12:36 AM
673921800	XM_008657237.1	Aug 21, 2014 12:36 AM
673921796	XM_008646863.1	Aug 21, 2014 12:36 AM
673921792	XM_008646277.1	Aug 21, 2014 12:36 AM
673921787	XM_008677033.1	Aug 21, 2014 12:35 AM
673921783	XM_008646292.1	Aug 21, 2014 12:35 AM
673921781	XM_008646789.1	Aug 21, 2014 12:35 AM
673921779	XM_008647779.1	Aug 21, 2014 12:35 AM
673921773	XM_008659021.1	Aug 21, 2014 12:35 AM
673921771	XM_008661747.1	Aug 21, 2014 12:35 AM
673921765	XM_008654763.1	Aug 21, 2014 12:35 AM
673921761	XM_008677295.1	Aug 21, 2014 12:35 AM
673921759	XM_008667179.1	Aug 21, 2014 12:35 AM
673921757	XM_008661022.1	Aug 21, 2014 12:35 AM
673921755	XM_008672082.1	Aug 21, 2014 12:35 AM
673921749	XM_008671647.1	Aug 21, 2014 12:35 AM
673921743	XM_008665011.1	Aug 21, 2014 12:35 AM
673921739	XM_008647325.1	Aug 21, 2014 12:35 AM
673921731	XM_008665503.1	Aug 21, 2014 12:35 AM
673921727	XM_008676549.1	Aug 21, 2014 12:35 AM
673921723	XM_008672677.1	Aug 21, 2014 12:35 AM
673921719	XM_008670767.1	Aug 21, 2014 12:35 AM
673921713	XM_008664550.1	Aug 21, 2014 12:35 AM
673921711	XM_008665505.1	Aug 21, 2014 12:35 AM
673921709	XM_008651632.1	Aug 21, 2014 12:34 AM
673921707	XM_008662008.1	Aug 21, 2014 12:34 AM
673921703	XM_008671950.1	Aug 21, 2014 12:34 AM
673921691	XM_008667534.1	Aug 21, 2014 12:34 AM
673921683	XM_008681326.1	Aug 21, 2014 12:34 AM
673921677	XM_008680233.1	Aug 21, 2014 12:34 AM
673921665	XM_008650894.1	Aug 21, 2014 12:34 AM
673921659	XM_008654695.1	Aug 21, 2014 12:34 AM
673921655	XM_008651485.1	Aug 21, 2014 12:34 AM
673921653	XM_008664569.1	Aug 21, 2014 12:34 AM
673921651	XM_008672279.1	Aug 21, 2014 12:34 AM
673921647	XM_008676827.1	Aug 21, 2014 12:34 AM
673921643	XM_008662047.1	Aug 21, 2014 12:34 AM
673921633	XM_008679796.1	Aug 21, 2014 12:33 AM
673921631	XM_008660142.1	Aug 21, 2014 12:33 AM
673921614	XM_008659003.1	Aug 21, 2014 12:33 AM
673921610	XM_008651486.1	Aug 21, 2014 12:33 AM
673921608	XM_008670510.1	Aug 21, 2014 12:33 AM
673921606	XM_008676909.1	Aug 21, 2014 12:33 AM
673921600	XM_008657233.1	Aug 21, 2014 12:32 AM
673921596	XM_008653692.1	Aug 21, 2014 12:32 AM
673921594	XM_008661766.1	Aug 21, 2014 12:32 AM
673921578	XM_008661749.1	Aug 21, 2014 12:32 AM
673921576	XM_008652580.1	Aug 21, 2014 12:32 AM
673921574	XM_008651787.1	Aug 21, 2014 12:32 AM
673921568	XM_008671919.1	Aug 21, 2014 12:32 AM
673921566	XM_008671170.1	Aug 21, 2014 12:32 AM
673921556	XM_008654848.1	Aug 21, 2014 12:32 AM
673921548	XM_008661300.1	Aug 21, 2014 12:32 AM
673921540	XM_008677266.1	Aug 21, 2014 12:32 AM
673921538	XM_008657247.1	Aug 21, 2014 12:32 AM
673921536	XM_008654070.1	Aug 21, 2014 12:32 AM
673921532	XM_008666372.1	Aug 21, 2014 12:32 AM
673921530	XM_008676570.1	Aug 21, 2014 12:32 AM
673921526	XM_008647004.1	Aug 21, 2014 12:32 AM
673921524	XM_008671639.1	Aug 21, 2014 12:32 AM
673921522	XM_008646362.1	Aug 21, 2014 12:31 AM
673921514	XM_008675421.1	Aug 21, 2014 12:31 AM
673921504	XM_008676668.1	Aug 21, 2014 12:31 AM
673921502	XM_008665135.1	Aug 21, 2014 12:31 AM
673921490	XM_008647636.1	Aug 21, 2014 12:31 AM
673921488	XM_008658478.1	Aug 21, 2014 12:31 AM
673921486	XM_008670592.1	Aug 21, 2014 12:31 AM
673921484	XM_008671745.1	Aug 21, 2014 12:31 AM
673921480	XM_008654458.1	Aug 21, 2014 12:31 AM
673921476	XM_008651506.1	Aug 21, 2014 12:31 AM
673921474	XM_008680568.1	Aug 21, 2014 12:31 AM
673921472	XM_008658507.1	Aug 21, 2014 12:31 AM
673921468	XM_008658499.1	Aug 21, 2014 12:31 AM
673921458	XM_008658974.1	Aug 21, 2014 12:31 AM
673921456	XM_008680880.1	Aug 21, 2014 12:31 AM
673921452	XM_008655168.1	Aug 21, 2014 12:31 AM
673921444	XM_008660841.1	Aug 21, 2014 12:30 AM
226500415	XM_008678900.1	Aug 17, 2014 12:32 AM
226495664	XM_008653027.1	Aug 17, 2014 12:33 AM
552562410	JH967982.1	JH967981.1	JH967973.1	Oct 24, 2013 01:00 PM
552562118	JH967972.1	Oct 24, 2013 12:54 PM
293888	S44008.1	Feb 8, 2002 11:36 AM
293886	S44009.1	Feb 8, 2002 11:36 AM
433706	S44189.1	Jun 21, 2005 10:13 AM
347558891	JF937054.1	Sep 27, 2011 12:07 AM
23957410	AF390543.1	Oct 15, 2002 12:04 AM
342156602	AF136220.1	AF136221.1	Jul 29, 2011 03:50 PM
339635306	U09743.1	U09744.1	Jul 7, 2011 04:27 PM
339511150	AF479591.1	AF479592.1	Jul 6, 2011 05:00 PM
17082476	AF296123.1	X07940.1	AF320086.1	Nov 26, 2001 05:33 PM
18101647	AF338141.1	Jan 9, 2002 09:05 PM
18105084	AF338134.1	Jan 10, 2002 11:29 AM
18101686	AF338129.2	Jan 9, 2002 09:06 PM
18101684	AF338137.1	Jan 9, 2002 09:06 PM
18101678	AF338133.1	Jan 9, 2002 09:06 PM
18101675	AF338117.1	Jan 9, 2002 09:06 PM
18101672	AF338122.1	Jan 9, 2002 09:06 PM
18101669	AF387167.1	Jan 9, 2002 09:06 PM
18101666	AF338131.1	Jan 9, 2002 09:06 PM
18101662	AF338136.1	Jan 9, 2002 09:06 PM
18101660	AF338120.1	Jan 9, 2002 09:06 PM
18101656	AF338130.1	Jan 9, 2002 09:06 PM
18101654	AF338128.1	Jan 9, 2002 09:06 PM
18101653	AF387168.1	Jan 9, 2002 09:05 PM
18101652	AF338127.1	Jan 9, 2002 09:05 PM
18101650	AF387166.1	Jan 9, 2002 09:05 PM
18101649	AF338126.1	Jan 9, 2002 09:05 PM
18101648	AF387170.1	Jan 9, 2002 09:05 PM
18101645	AF338140.1	Jan 9, 2002 09:05 PM
18101644	AF338138.1	Jan 9, 2002 09:05 PM
18101642	AF387165.1	Jan 9, 2002 09:05 PM
18101641	AF338119.1	Jan 9, 2002 09:05 PM
18101640	AF338116.1	Jan 9, 2002 09:05 PM
18101639	AF338115.1	Jan 9, 2002 09:05 PM
563926	L14834	Nov 6, 1994 12:03 AM
293905	Z22172	Feb 26, 2002 04:28 PM
293903	Z22149	Feb 26, 2002 04:28 PM
13606087	AF105716.1	Apr 12, 2001 01:24 PM
105990545	DQ414253.1	Jun 1, 2006 02:43 PM
168671	V01471.1	Feb 19, 2004 09:09 AM
13397940	AJ004810.1	Dec 9, 2004 11:09 PM
22267	M17401.1	M17400.1	Jul 11, 2002 09:07 AM
22178	S94555.1	S94556.1	Feb 10, 2005 01:23 PM
12421	M22024.1	May 10, 2005 01:06 PM
429148	S47026.1	May 29, 2003 08:48 AM
22381	S54006.1	Aug 11, 2005 09:44 AM
22509	M24258.1	Jul 25, 2003 07:47 AM
22352	S40052.1	May 6, 2005 02:10 PM
22275	S40045.1	Feb 10, 2005 01:23 PM
22192	S48060.1	Aug 11, 2005 09:43 AM
14290	S52667.1	S52668.1	Oct 5, 2005 08:24 AM
12419	S42334.1	S42337.1	Aug 26, 2005 10:16 AM
13919	M26372.1	Jan 25, 2006 07:54 AM
393399	S56924.1	S56950.1	Oct 7, 2005 09:56 AM
22229	S45324.1	Oct 6, 2005 02:24 PM
22215	S43325.1	Aug 11, 2005 09:49 AM
22138	S38034.1	Jun 23, 2005 09:35 AM
22764	L11313.1	Feb 10, 2005 01:23 PM
22762	L11312.1	Feb 10, 2005 01:23 PM
22277	S40044.1	Feb 10, 2005 01:23 PM
22231	M33104.1	Feb 10, 2005 01:23 PM
13900	M23821.1	Mar 8, 2005 09:28 AM
12394	J01423.1	Jul 24, 2002 11:24 AM
22531	J01245.1	Mar 15, 2005 09:27 AM
22518	J01243.1	Mar 15, 2005 09:27 AM
12468	M31336.1	Mar 8, 2005 09:28 AM
22551	S39890.1	Feb 10, 2005 01:35 PM
22551	S39626.1	Feb 10, 2005 01:23 PM
13908	J01425.1	Feb 10, 2005 01:23 PM
45356226	AC147810.1	Apr 1, 2004 04:11 AM
22194	S48027.1	Sep 21, 2004 08:48 AM
22227	S39565.1	Nov 24, 2003 02:19 PM
12470	M19943.1	M10720.1	Aug 19, 2003 01:06 PM
217959	S66924.1	Jul 30, 2002 01:50 PM
